\relax 
\select@language{english}
\@writefile{toc}{\select@language{english}}
\@writefile{lof}{\select@language{english}}
\@writefile{lot}{\select@language{english}}
\providecommand*\caption@xref[2]{\@setref\relax\@undefined{#1}}
\newlabel{fig:logo-u-bdx1}{{1a}{1}}
\newlabel{sub@fig:logo-u-bdx1}{{(a)}{a}}
\newlabel{fig:logo-labri2}{{1b}{1}}
\newlabel{sub@fig:logo-labri2}{{(b)}{b}}
\newlabel{fig:logo-puf}{{1c}{1}}
\newlabel{sub@fig:logo-puf}{{(c)}{c}}
\@writefile{toc}{\contentsline {chapter}{Abstract}{1}}
\@writefile{toc}{\contentsline {paragraph}{}{1}}
\@writefile{toc}{\contentsline {paragraph}{}{1}}
\@writefile{toc}{\contentsline {paragraph}{}{1}}
\@writefile{toc}{\contentsline {paragraph}{}{1}}
\@writefile{toc}{\contentsline {paragraph}{}{1}}
\@writefile{toc}{\contentsline {chapter}{Acknowledgement}{1}}
\citation{shannon:cytoscape}
\citation{liaec:biolayout}
\citation{suzanne:pathwaytools}
\citation{suzanne:pathwaytools}
\citation{Zhenjun:VisANT}
\@writefile{toc}{\contentsline {paragraph}{}{2}}
\@writefile{toc}{\contentsline {paragraph}{}{2}}
\@writefile{toc}{\contentsline {chapter}{Introduction}{2}}
\@writefile{toc}{\contentsline {chapter}{\numberline {1}Context}{3}}
\@writefile{lof}{\addvspace {10\p@ }}
\@writefile{lot}{\addvspace {10\p@ }}
\@writefile{toc}{\contentsline {paragraph}{}{3}}
\@writefile{toc}{\contentsline {section}{\numberline {1.1}P\IeC {\^o}les Universitaires Fran\IeC {\c c}ais}{3}}
\@writefile{toc}{\contentsline {paragraph}{}{3}}
\@writefile{toc}{\contentsline {paragraph}{}{4}}
\@writefile{toc}{\contentsline {section}{\numberline {1.2}Laboratoire Bordelais de Recherche en Informatique}{4}}
\@writefile{toc}{\contentsline {paragraph}{}{4}}
\@writefile{lof}{\contentsline {figure}{\numberline {1.1}{\ignorespaces LaBRI}}{4}}
\citation{shannon:cytoscape}
\@writefile{toc}{\contentsline {paragraph}{}{5}}
\@writefile{toc}{\contentsline {section}{\numberline {1.3}Working group}{5}}
\@writefile{toc}{\contentsline {section}{\numberline {1.4}Motivation}{5}}
\@writefile{toc}{\contentsline {paragraph}{}{5}}
\citation{Karp:ADMP}
\@writefile{toc}{\contentsline {section}{\numberline {1.5}Problem}{6}}
\@writefile{toc}{\contentsline {section}{\numberline {1.6}Requirements}{6}}
\@writefile{toc}{\contentsline {paragraph}{The primary operations consist of the application:}{6}}
\@writefile{toc}{\contentsline {subsection}{\numberline {1.6.1}Proposal functional operations}{6}}
\@writefile{toc}{\contentsline {subsection}{\numberline {1.6.2}Proposal non-functional operations}{7}}
\citation{website:joseph-graph-intro}
\citation{website:rashid-graph-intro}
\@writefile{toc}{\contentsline {chapter}{\numberline {2}Presentation of biological networks}{8}}
\@writefile{lof}{\addvspace {10\p@ }}
\@writefile{lot}{\addvspace {10\p@ }}
\@writefile{toc}{\contentsline {section}{\numberline {2.1}Graph Theory}{8}}
\@writefile{toc}{\contentsline {subsection}{\numberline {2.1.1}History of Graph Theory}{8}}
\@writefile{lof}{\contentsline {figure}{\numberline {2.1}{\ignorespaces The seven bridges of Konigsberg$^{\ref  {fig:konigsberg-bridges}}$\relax }}{8}}
\@writefile{toc}{\contentsline {paragraph}{}{9}}
\@writefile{toc}{\contentsline {subsection}{\numberline {2.1.2}Definitions of Graph}{9}}
\@writefile{toc}{\contentsline {paragraph}{}{9}}
\newlabel{fig:undirected-graph}{{2.2a}{9}}
\newlabel{sub@fig:undirected-graph}{{(a)}{a}}
\newlabel{fig:directed-graph}{{2.2b}{9}}
\newlabel{sub@fig:directed-graph}{{(b)}{b}}
\@writefile{lof}{\contentsline {figure}{\numberline {2.2}{\ignorespaces Examples of graphs\relax }}{9}}
\@writefile{lof}{\contentsline {subfigure}{\numberline{(a)}{\ignorespaces {undirected graph}}}{9}}
\@writefile{lof}{\contentsline {subfigure}{\numberline{(b)}{\ignorespaces {directed graph}}}{9}}
\newlabel{fig:graph-examples}{{2.2}{9}}
\newlabel{fig:konigsberg-bridges}{{2}{9}}
\citation{chaomei:graph-drawing-algorithms}
\citation{jonathan:graph-applications}
\@writefile{toc}{\contentsline {paragraph}{}{10}}
\@writefile{toc}{\contentsline {subsection}{\numberline {2.1.3}Graph Drawing}{10}}
\@writefile{toc}{\contentsline {paragraph}{}{10}}
\@writefile{toc}{\contentsline {paragraph}{}{10}}
\@writefile{toc}{\contentsline {paragraph}{}{10}}
\@writefile{toc}{\contentsline {subsection}{\numberline {2.1.4}Applications of Graph}{10}}
\@writefile{toc}{\contentsline {paragraph}{}{10}}
\@writefile{toc}{\contentsline {paragraph}{}{10}}
\@writefile{toc}{\contentsline {section}{\numberline {2.2}Biological Graph}{10}}
\newlabel{sec:biological-graph}{{2.2}{10}}
\citation{lecture-notes:mark-bio-intro}
\citation{lecture-notes:helge-intro-bio}
\citation{berge:hypergraphs}
\citation{gallo:hypergraphs-application}
\@writefile{toc}{\contentsline {subsection}{\numberline {2.2.1}Introduction to Bioinformatics}{11}}
\@writefile{toc}{\contentsline {subsection}{\numberline {2.2.2}Biological Graph}{11}}
\newlabel{fig:enzymatic}{{2.3a}{11}}
\newlabel{sub@fig:enzymatic}{{(a)}{a}}
\newlabel{fig:protein}{{2.3b}{11}}
\newlabel{sub@fig:protein}{{(b)}{b}}
\@writefile{lof}{\contentsline {figure}{\numberline {2.3}{\ignorespaces Pictures of biological processes\relax }}{11}}
\@writefile{lof}{\contentsline {subfigure}{\numberline{(a)}{\ignorespaces {Synthetic Enzymatic Pathway}}}{11}}
\@writefile{lof}{\contentsline {subfigure}{\numberline{(b)}{\ignorespaces {Protein-Protein Interactions}}}{11}}
\newlabel{fig:processes}{{2.3}{11}}
\@writefile{toc}{\contentsline {paragraph}{}{11}}
\@writefile{toc}{\contentsline {paragraph}{}{11}}
\citation{Moritz:gladmp}
\@writefile{lof}{\contentsline {figure}{\numberline {2.4}{\ignorespaces The representation of the metabolique reaction A + B -> C + B by a graph\relax }}{12}}
\newlabel{fig:reaction1}{{2.4}{12}}
\@writefile{lof}{\contentsline {figure}{\numberline {2.5}{\ignorespaces The other representation of the metabolic reaction A + B -> C + B by a hyper graph\relax }}{12}}
\newlabel{fig:reaction2}{{2.5}{12}}
\@writefile{toc}{\contentsline {paragraph}{}{12}}
\@writefile{toc}{\contentsline {section}{\numberline {2.3}Graph Visualization}{12}}
\citation{graham:onlisp}
\citation{seibel:practicalcl}
\@writefile{toc}{\contentsline {subsection}{\numberline {2.3.1}Graphviz}{13}}
\@writefile{toc}{\contentsline {paragraph}{}{13}}
\@writefile{toc}{\contentsline {subsection}{\numberline {2.3.2}Tulip}{13}}
\@writefile{toc}{\contentsline {subsection}{\numberline {2.3.3}BabelGraph}{13}}
\@writefile{toc}{\contentsline {section}{\numberline {2.4}Common Lisp Programming Language}{13}}
\citation{ms-ka:OpenGL-Specification}
\@writefile{toc}{\contentsline {paragraph}{}{14}}
\@writefile{toc}{\contentsline {section}{\numberline {2.5}OpenGL and Bindings for Common Lisp}{14}}
\@writefile{toc}{\contentsline {paragraph}{}{14}}
\@writefile{toc}{\contentsline {paragraph}{}{14}}
\@writefile{toc}{\contentsline {subsection}{\numberline {2.5.1}cl-opengl, cl-glfw and cl-sdl}{15}}
\@writefile{toc}{\contentsline {paragraph}{}{15}}
\@writefile{toc}{\contentsline {paragraph}{}{15}}
\@writefile{toc}{\contentsline {subsection}{\numberline {2.5.2}Drawing text in OpenGL}{15}}
\@writefile{toc}{\contentsline {paragraph}{}{15}}
\@writefile{toc}{\contentsline {subsection}{\numberline {2.5.3}The Sync project}{16}}
\@writefile{toc}{\contentsline {paragraph}{}{16}}
\citation{tid:graph-drawing}
\@writefile{toc}{\contentsline {chapter}{\numberline {3}Cabine}{17}}
\@writefile{lof}{\addvspace {10\p@ }}
\@writefile{lot}{\addvspace {10\p@ }}
\@writefile{toc}{\contentsline {section}{\numberline {3.1}Model}{17}}
\@writefile{toc}{\contentsline {paragraph}{}{17}}
\@writefile{lof}{\contentsline {figure}{\numberline {3.1}{\ignorespaces The paradigm of the application\relax }}{17}}
\newlabel{fig:classical-pipeline-app}{{3.1}{17}}
\@writefile{toc}{\contentsline {subsection}{\numberline {3.1.1}Biological Graph}{17}}
\@writefile{lof}{\contentsline {figure}{\numberline {3.2}{\ignorespaces The metabolic graph model\relax }}{18}}
\newlabel{fig:metabolic-graph-diagram-model}{{3.2}{18}}
\@writefile{toc}{\contentsline {subsection}{\numberline {3.1.2}Biological Drawing}{18}}
\@writefile{lof}{\contentsline {figure}{\numberline {3.3}{\ignorespaces Illustration of the Biological Drawing class\relax }}{18}}
\newlabel{fig:biological-drawing}{{3.3}{18}}
\citation{lecture-notes:mark-bio-intro}
\citation{lecture-notes:helge-intro-bio}
\@writefile{toc}{\contentsline {paragraph}{}{19}}
\@writefile{toc}{\contentsline {section}{\numberline {3.2}Classes}{19}}
\@writefile{toc}{\contentsline {paragraph}{}{19}}
\@writefile{toc}{\contentsline {paragraph}{}{19}}
\@writefile{toc}{\contentsline {subsection}{\numberline {3.2.1}Biological Objects}{19}}
\@writefile{toc}{\contentsline {paragraph}{}{20}}
\@writefile{lof}{\contentsline {figure}{\numberline {3.4}{\ignorespaces The class diagram of biological objects\relax }}{20}}
\@writefile{toc}{\contentsline {subsection}{\numberline {3.2.2}Graph}{20}}
\@writefile{toc}{\contentsline {subsection}{\numberline {3.2.3}3D Objects}{20}}
\@writefile{lof}{\contentsline {figure}{\numberline {3.5}{\ignorespaces The class diagram of biological graph\relax }}{21}}
\newlabel{fig:biological-graph}{{3.5}{21}}
\@writefile{toc}{\contentsline {subsection}{\numberline {3.2.4}OpenGL View}{21}}
\@writefile{toc}{\contentsline {subsection}{\numberline {3.2.5}Main Application}{21}}
\newlabel{lst:main-application}{{3.1}{21}}
\@writefile{lol}{\contentsline {lstlisting}{\numberline {3.1}The steps of the main application}{21}}
\@writefile{lof}{\contentsline {figure}{\numberline {3.6}{\ignorespaces The class diagram of 3D objects\relax }}{22}}
\newlabel{fig:3d-objects}{{3.6}{22}}
\@writefile{toc}{\contentsline {paragraph}{}{22}}
\@writefile{toc}{\contentsline {section}{\numberline {3.3}Functionality}{22}}
\@writefile{toc}{\contentsline {subsection}{\numberline {3.3.1}Loading the data file}{22}}
\@writefile{lof}{\contentsline {figure}{\numberline {3.7}{\ignorespaces The description file of mitochondrial muscle network\relax }}{23}}
\newlabel{fig:mito-muscle}{{3.7}{23}}
\@writefile{toc}{\contentsline {paragraph}{}{23}}
\@writefile{toc}{\contentsline {subsection}{\numberline {3.3.2}Creating metabolic graph}{23}}
\@writefile{toc}{\contentsline {subsection}{\numberline {3.3.3}Drawing metabolic network}{23}}
\citation{gl:superBible}
\citation{rw:openglApp}
\citation{gl:superBible}
\@writefile{toc}{\contentsline {paragraph}{}{24}}
\@writefile{toc}{\contentsline {subsection}{\numberline {3.3.4}Selection}{24}}
\@writefile{toc}{\contentsline {subsection}{\numberline {3.3.5}Transformation}{24}}
\@writefile{toc}{\contentsline {paragraph}{Definition}{24}}
\@writefile{toc}{\contentsline {paragraph}{}{24}}
\@writefile{toc}{\contentsline {paragraph}{Translation}{24}}
\citation{gl:superBible}
\@writefile{toc}{\contentsline {paragraph}{}{25}}
\@writefile{lof}{\contentsline {figure}{\numberline {3.8}{\ignorespaces A cube translated 10 units in the positive y direction\relax }}{25}}
\newlabel{fig:illustration-translation}{{3.8}{25}}
\@writefile{toc}{\contentsline {paragraph}{Rotation}{25}}
\@writefile{toc}{\contentsline {paragraph}{}{25}}
\@writefile{toc}{\contentsline {paragraph}{Zoom}{25}}
\citation{Moritz:gladmp}
\citation{Karp:ADMP}
\@writefile{lof}{\contentsline {figure}{\numberline {3.9}{\ignorespaces A cube rotated about an arbitrary axis\relax }}{26}}
\newlabel{fig:illustration-rotation}{{3.9}{26}}
\@writefile{toc}{\contentsline {paragraph}{}{26}}
\@writefile{toc}{\contentsline {paragraph}{}{26}}
\@writefile{toc}{\contentsline {subsection}{\numberline {3.3.6}Layout}{26}}
\@writefile{toc}{\contentsline {chapter}{\numberline {4}Results}{27}}
\@writefile{lof}{\addvspace {10\p@ }}
\@writefile{lot}{\addvspace {10\p@ }}
\@writefile{toc}{\contentsline {paragraph}{}{27}}
\@writefile{toc}{\contentsline {section}{\numberline {4.1}Setting up the application's environment}{27}}
\@writefile{toc}{\contentsline {section}{\numberline {4.2}Steps to run the application}{27}}
\@writefile{toc}{\contentsline {subsection}{\numberline {4.2.1}Loading description file}{27}}
\@writefile{lof}{\contentsline {figure}{\numberline {4.1}{\ignorespaces Metabolic Network}}{28}}
\newlabel{fig:mito-net-demo}{{4.1}{28}}
\newlabel{lst:reaction-parser}{{4.1}{28}}
\@writefile{lol}{\contentsline {lstlisting}{\numberline {4.1}Illustration og the reaction parser}{28}}
\@writefile{toc}{\contentsline {subsection}{\numberline {4.2.2}Initializing positions}{28}}
\citation{gl:superBible}
\@writefile{lot}{\contentsline {table}{\numberline {4.1}{\ignorespaces The functions deals with the OpenGL environment\relax }}{29}}
\newlabel{table:func-opengl}{{4.1}{29}}
\@writefile{toc}{\contentsline {subsection}{\numberline {4.2.3}Drawing the graph}{29}}
\@writefile{toc}{\contentsline {section}{\numberline {4.3}Selection}{29}}
\@writefile{toc}{\contentsline {paragraph}{}{30}}
\@writefile{toc}{\contentsline {paragraph}{}{30}}
\@writefile{toc}{\contentsline {subsection}{\numberline {4.3.1}Picking}{30}}
\@writefile{toc}{\contentsline {paragraph}{}{30}}
\@writefile{toc}{\contentsline {subparagraph}{Render mode (GL\_RENDER)}{30}}
\@writefile{toc}{\contentsline {subparagraph}{Render mode (GL\_SELECT)}{30}}
\@writefile{toc}{\contentsline {subparagraph}{Render mode (GL\_FEEDBACK)}{30}}
\@writefile{toc}{\contentsline {paragraph}{}{30}}
\newlabel{lst:picking-object}{{4.2}{30}}
\@writefile{lol}{\contentsline {lstlisting}{\numberline {4.2}Picking object}{30}}
\@writefile{toc}{\contentsline {paragraph}{}{31}}
\@writefile{toc}{\contentsline {subsection}{\numberline {4.3.2}Highlight}{31}}
\newlabel{lst:highlight-object}{{4.3}{31}}
\@writefile{lol}{\contentsline {lstlisting}{\numberline {4.3}Highlighting the selected objects}{31}}
\@writefile{toc}{\contentsline {section}{\numberline {4.4}Transformation}{31}}
\@writefile{toc}{\contentsline {subsection}{\numberline {4.4.1}Translation}{31}}
\citation{website:opengl-org-viewing}
\@writefile{toc}{\contentsline {subsection}{\numberline {4.4.2}Rotation}{32}}
\@writefile{toc}{\contentsline {subsection}{\numberline {4.4.3}Zoom}{32}}
\citation{kamran:label-layout}
\@writefile{toc}{\contentsline {chapter}{Conclusion and future work}{33}}
\@writefile{toc}{\contentsline {paragraph}{Storing biological data in computer's memory}{33}}
\@writefile{toc}{\contentsline {paragraph}{Defining biological graphs}{33}}
\@writefile{toc}{\contentsline {paragraph}{Visualizing biological graphs}{33}}
\@writefile{toc}{\contentsline {paragraph}{Interacting with biological graphs}{33}}
\@writefile{toc}{\contentsline {paragraph}{}{33}}
\@writefile{toc}{\contentsline {paragraph}{Finishing the module of show labels}{33}}
\citation{Moritz:gladmp}
\citation{Karp:ADMP}
\citation{peter-herth:ltk}
\bibstyle{plain}
\bibdata{final-report}
\@writefile{toc}{\contentsline {paragraph}{Extending operations}{34}}
\@writefile{toc}{\contentsline {paragraph}{Applying layout algorithms}{34}}
\@writefile{toc}{\contentsline {paragraph}{Integrating GUI}{34}}
\bibcite{Moritz:gladmp}{1}
\bibcite{berge:hypergraphs}{2}
\bibcite{chaomei:graph-drawing-algorithms}{3}
\bibcite{lecture-notes:mark-bio-intro}{4}
\bibcite{gallo:hypergraphs-application}{5}
\bibcite{liaec:biolayout}{6}
\bibcite{graham:onlisp}{7}
\bibcite{jonathan:graph-applications}{8}
\bibcite{website:opengl-org-viewing}{9}
\bibcite{peter-herth:ltk}{10}
\bibcite{Zhenjun:VisANT}{11}
\bibcite{kamran:label-layout}{12}
\bibcite{Karp:ADMP}{13}
\bibcite{website:joseph-graph-intro}{14}
\bibcite{website:rashid-graph-intro}{15}
\bibcite{suzanne:pathwaytools}{16}
\bibcite{ms-ka:OpenGL-Specification}{17}
\bibcite{seibel:practicalcl}{18}
\bibcite{shannon:cytoscape}{19}
\bibcite{tid:graph-drawing}{20}
\bibcite{lecture-notes:helge-intro-bio}{21}
\bibcite{rw:openglApp}{22}
\bibcite{gl:superBible}{23}
\@writefile{toc}{\contentsline {chapter}{Bibliography}{36}}
\@writefile{toc}{\contentsline {chapter}{Appendix}{36}}
\@writefile{toc}{\contentsline {chapter}{\numberline {A}UML Diagrams}{37}}
\@writefile{lof}{\addvspace {10\p@ }}
\@writefile{lot}{\addvspace {10\p@ }}
\@writefile{toc}{\contentsline {chapter}{\numberline {B}Implementation of the Classes}{38}}
\@writefile{lof}{\addvspace {10\p@ }}
\@writefile{lot}{\addvspace {10\p@ }}
\@writefile{lol}{\contentsline {lstlisting}{/home/nvntung/stage/mb\textendash net\textendash editor\textendash project/cl\textendash object\textendash 3d.lisp}{38}}
\@writefile{lol}{\contentsline {lstlisting}{/home/nvntung/stage/mb\textendash net\textendash editor\textendash project/bio\textendash data\textendash model.lisp}{49}}
\@writefile{lol}{\contentsline {lstlisting}{/home/nvntung/stage/mb\textendash net\textendash editor\textendash project/bio\textendash graph\textendash model.lisp}{52}}
\@writefile{lol}{\contentsline {lstlisting}{/home/nvntung/stage/mb\textendash net\textendash editor\textendash project/bio\textendash graphical\textendash view.lisp}{59}}
\@writefile{lol}{\contentsline {lstlisting}{/home/nvntung/stage/mb\textendash net\textendash editor\textendash project/bio\textendash io\textendash system.lisp}{71}}
\@writefile{lol}{\contentsline {lstlisting}{/home/nvntung/stage/mb\textendash net\textendash editor\textendash project/bio\textendash application\textendash main.lisp}{75}}
\@writefile{toc}{\contentsline {chapter}{\numberline {C}User's Guides}{77}}
\@writefile{lof}{\addvspace {10\p@ }}
\@writefile{lot}{\addvspace {10\p@ }}
\@writefile{toc}{\contentsline {section}{\numberline {C.1}Introduction}{77}}
\@writefile{toc}{\contentsline {section}{\numberline {C.2}Functionalities}{77}}
\@writefile{toc}{\contentsline {section}{\numberline {C.3}Tutorials}{77}}
\@writefile{toc}{\contentsline {chapter}{\numberline {D}Developer's Guides}{78}}
\@writefile{lof}{\addvspace {10\p@ }}
\@writefile{lot}{\addvspace {10\p@ }}
\@writefile{toc}{\contentsline {section}{\numberline {D.1}Introduction}{78}}
\@writefile{toc}{\contentsline {paragraph}{}{78}}
\@writefile{toc}{\contentsline {section}{\numberline {D.2}Installation}{78}}
\@writefile{toc}{\contentsline {paragraph}{}{78}}
\@writefile{toc}{\contentsline {paragraph}{}{78}}
\@writefile{toc}{\contentsline {section}{\numberline {D.3}Functions}{79}}
