\relax 
\ifx\hyper@anchor\@undefined
\global \let \oldcontentsline\contentsline
\gdef \contentsline#1#2#3#4{\oldcontentsline{#1}{#2}{#3}}
\global \let \oldnewlabel\newlabel
\gdef \newlabel#1#2{\newlabelxx{#1}#2}
\gdef \newlabelxx#1#2#3#4#5#6{\oldnewlabel{#1}{{#2}{#3}}}
\AtEndDocument{\let \contentsline\oldcontentsline
\let \newlabel\oldnewlabel}
\else
\global \let \hyper@last\relax 
\fi

\@writefile{toc}{\beamer@endinputifotherversion {3.07pt}}
\@writefile{nav}{\beamer@endinputifotherversion {3.07pt}}
\select@language{english}
\@writefile{toc}{\select@language{english}}
\@writefile{lof}{\select@language{english}}
\@writefile{lot}{\select@language{english}}
\@writefile{nav}{\headcommand {\slideentry {0}{0}{1}{1/1}{}{0}}}
\@writefile{nav}{\headcommand {\beamer@framepages {1}{1}}}
\@writefile{nav}{\headcommand {\sectionentry {1}{Outline}{2}{Outline}{0}}}
\@writefile{nav}{\headcommand {\beamer@sectionpages {1}{1}}}
\@writefile{nav}{\headcommand {\beamer@subsectionpages {1}{1}}}
\@writefile{nav}{\headcommand {\slideentry {1}{0}{2}{2/2}{}{0}}}
\@writefile{nav}{\headcommand {\beamer@framepages {2}{2}}}
\@writefile{toc}{\beamer@sectionintoc {2}{Introduction}{3}{0}{1}}
\@writefile{nav}{\headcommand {\sectionentry {2}{Introduction}{3}{Introduction}{0}}}
\@writefile{nav}{\headcommand {\beamer@sectionpages {2}{2}}}
\@writefile{nav}{\headcommand {\beamer@subsectionpages {2}{2}}}
\@writefile{nav}{\headcommand {\slideentry {2}{0}{3}{3/3}{}{0}}}
\@writefile{nav}{\headcommand {\beamer@framepages {3}{3}}}
\@writefile{nav}{\headcommand {\beamer@subsectionentry {0}{2}{1}{4}{Introduction of PUF-HCM and LaBRI}}\headcommand {\beamer@subsectionpages {3}{3}}}
\@writefile{nav}{\headcommand {\slideentry {2}{1}{1}{4/4}{Introduction of PUF-HCM and LaBRI}{0}}}
\@writefile{nav}{\headcommand {\beamer@framepages {4}{4}}}
\@writefile{nav}{\headcommand {\beamer@subsectionentry {0}{2}{2}{5}{Plan}}\headcommand {\beamer@subsectionpages {4}{4}}}
\@writefile{nav}{\headcommand {\slideentry {2}{2}{1}{5/5}{Plan}{0}}}
\@writefile{nav}{\headcommand {\beamer@framepages {5}{5}}}
\@writefile{toc}{\beamer@sectionintoc {3}{Context}{6}{0}{2}}
\@writefile{nav}{\headcommand {\sectionentry {3}{Context}{6}{Context}{0}}}
\@writefile{nav}{\headcommand {\beamer@sectionpages {3}{5}}}
\@writefile{nav}{\headcommand {\beamer@subsectionpages {5}{5}}}
\@writefile{nav}{\headcommand {\slideentry {3}{0}{2}{6/6}{}{0}}}
\@writefile{nav}{\headcommand {\beamer@framepages {6}{6}}}
\@writefile{nav}{\headcommand {\slideentry {3}{0}{3}{7/7}{}{0}}}
\@writefile{nav}{\headcommand {\beamer@framepages {7}{7}}}
\@writefile{nav}{\headcommand {\slideentry {3}{0}{4}{8/8}{}{0}}}
\@writefile{nav}{\headcommand {\beamer@framepages {8}{8}}}
\@writefile{nav}{\headcommand {\slideentry {3}{0}{5}{9/10}{}{0}}}
\@writefile{nav}{\headcommand {\beamer@framepages {9}{10}}}
\@writefile{nav}{\headcommand {\slideentry {3}{0}{6}{11/12}{}{0}}}
\@writefile{nav}{\headcommand {\beamer@framepages {11}{12}}}
\@writefile{nav}{\headcommand {\slideentry {3}{0}{7}{13/13}{}{0}}}
\@writefile{nav}{\headcommand {\beamer@framepages {13}{13}}}
\@writefile{nav}{\headcommand {\slideentry {3}{0}{8}{14/14}{}{0}}}
\@writefile{nav}{\headcommand {\beamer@framepages {14}{14}}}
\@writefile{toc}{\beamer@subsectionintoc {3}{1}{Biological Graph}{15}{0}{2}}
\@writefile{nav}{\headcommand {\beamer@subsectionentry {0}{3}{1}{15}{Biological Graph}}\headcommand {\beamer@subsectionpages {6}{14}}}
\@writefile{nav}{\headcommand {\slideentry {3}{1}{1}{15/15}{Biological Graph}{0}}}
\@writefile{nav}{\headcommand {\beamer@framepages {15}{15}}}
\@writefile{toc}{\beamer@subsectionintoc {3}{2}{3D view}{16}{0}{2}}
\@writefile{nav}{\headcommand {\beamer@subsectionentry {0}{3}{2}{16}{3D view}}\headcommand {\beamer@subsectionpages {15}{15}}}
\@writefile{nav}{\headcommand {\slideentry {3}{2}{1}{16/16}{3D view}{0}}}
\@writefile{nav}{\headcommand {\beamer@framepages {16}{16}}}
\@writefile{toc}{\beamer@subsectionintoc {3}{3}{Operations}{17}{0}{2}}
\@writefile{nav}{\headcommand {\beamer@subsectionentry {0}{3}{3}{17}{Operations}}\headcommand {\beamer@subsectionpages {16}{16}}}
\@writefile{nav}{\headcommand {\slideentry {3}{3}{1}{17/18}{Operations}{0}}}
\@writefile{nav}{\headcommand {\beamer@framepages {17}{18}}}
\@writefile{toc}{\beamer@sectionintoc {4}{CABINE}{19}{0}{3}}
\@writefile{nav}{\headcommand {\sectionentry {4}{CABINE}{19}{CABINE}{0}}}
\@writefile{nav}{\headcommand {\beamer@sectionpages {6}{18}}}
\@writefile{nav}{\headcommand {\beamer@subsectionpages {17}{18}}}
\@writefile{nav}{\headcommand {\slideentry {4}{0}{2}{19/19}{}{0}}}
\@writefile{nav}{\headcommand {\beamer@framepages {19}{19}}}
\@writefile{toc}{\beamer@subsectionintoc {4}{1}{Architecture}{20}{0}{3}}
\@writefile{nav}{\headcommand {\beamer@subsectionentry {0}{4}{1}{20}{Architecture}}\headcommand {\beamer@subsectionpages {19}{19}}}
\@writefile{nav}{\headcommand {\slideentry {4}{1}{1}{20/20}{Architecture}{0}}}
\@writefile{nav}{\headcommand {\beamer@framepages {20}{20}}}
\@writefile{nav}{\headcommand {\slideentry {4}{1}{2}{21/24}{Architecture}{0}}}
\@writefile{nav}{\headcommand {\beamer@framepages {21}{24}}}
\@writefile{nav}{\headcommand {\slideentry {4}{1}{3}{25/26}{Architecture}{0}}}
\@writefile{nav}{\headcommand {\beamer@framepages {25}{26}}}
\@writefile{nav}{\headcommand {\slideentry {4}{1}{4}{27/28}{Architecture}{0}}}
\@writefile{nav}{\headcommand {\beamer@framepages {27}{28}}}
\@writefile{nav}{\headcommand {\slideentry {4}{1}{5}{29/30}{Architecture}{0}}}
\@writefile{nav}{\headcommand {\beamer@framepages {29}{30}}}
\@writefile{toc}{\beamer@subsectionintoc {4}{2}{Implementation}{31}{0}{3}}
\@writefile{nav}{\headcommand {\beamer@subsectionentry {0}{4}{2}{31}{Implementation}}\headcommand {\beamer@subsectionpages {20}{30}}}
\@writefile{nav}{\headcommand {\slideentry {4}{2}{1}{31/35}{Implementation}{0}}}
\@writefile{nav}{\headcommand {\beamer@framepages {31}{35}}}
\@writefile{nav}{\headcommand {\slideentry {4}{2}{2}{36/36}{Implementation}{0}}}
\@writefile{nav}{\headcommand {\beamer@framepages {36}{36}}}
\@writefile{toc}{\beamer@subsectionintoc {4}{3}{Results}{37}{0}{3}}
\@writefile{nav}{\headcommand {\beamer@subsectionentry {0}{4}{3}{37}{Results}}\headcommand {\beamer@subsectionpages {31}{36}}}
\@writefile{nav}{\headcommand {\slideentry {4}{3}{1}{37/37}{Results}{0}}}
\@writefile{nav}{\headcommand {\beamer@framepages {37}{37}}}
\@writefile{toc}{\beamer@sectionintoc {5}{Conclusion and future work}{38}{0}{4}}
\@writefile{nav}{\headcommand {\sectionentry {5}{Conclusion and future work}{38}{Conclusion and future work}{0}}}
\@writefile{nav}{\headcommand {\beamer@sectionpages {19}{37}}}
\@writefile{nav}{\headcommand {\beamer@subsectionpages {37}{37}}}
\@writefile{nav}{\headcommand {\slideentry {5}{0}{2}{38/39}{}{0}}}
\@writefile{nav}{\headcommand {\beamer@framepages {38}{39}}}
\@writefile{nav}{\headcommand {\slideentry {5}{0}{3}{40/40}{}{0}}}
\@writefile{nav}{\headcommand {\beamer@framepages {40}{40}}}
\@writefile{nav}{\headcommand {\beamer@partpages {1}{40}}}
\@writefile{nav}{\headcommand {\beamer@subsectionpages {38}{40}}}
\@writefile{nav}{\headcommand {\beamer@sectionpages {38}{40}}}
\@writefile{nav}{\headcommand {\beamer@documentpages {40}}}
\@writefile{nav}{\headcommand {\def \inserttotalframenumber {26}}}
