%!PS-Adobe-3.0
%%BeginProcSet: reencode 1.0 0 
/RE 
{  findfont begin 
  currentdict dup length dict begin 
  {1 index /FID ne {def} {pop pop} ifelse} forall 
  /FontName exch def dup length 0 ne 
  { /Encoding Encoding 256 array copy def 
      0 exch 
      { dup type /nametype eq 
        { Encoding 2 index 2 index put 
          pop 1 add 
        } 
        { exch pop 
        } ifelse 
      } forall 
  } if pop 
  currentdict dup end end 
  /FontName get exch definefont pop 
    } bind def 
%%EndProcSet: reencode 1.0 0 
%%BeginProcSet: ellipse 1.0 0 
/ellipsedict 8 dict def 
ellipsedict /mtrx matrix put 
/ellipse { ellipsedict begin 
/endangle exch def 
/startangle exch def 
/yrad exch def 
/xrad exch def 
/y exch def 
/x exch def 
/savematrix mtrx currentmatrix def 
x y translate 
xrad yrad scale 
0 0 1 0 360 arc 
savematrix setmatrix end } def 
%%EndProcSet: ellipse 1.0 0 
%%EndProlog
%%BeginSetup
/isolatin1encoding 
[ 32 /space /exclam /quotedbl /numbersign /dollar /percent /ampersand /quoteright 
 /parenleft /parenright /asterisk /plus /comma /hyphen /period /slash /zero /one 
 /two /three /four /five /six /seven /eight /nine /colon /semicolon 
 /less /equal /greater /question /at /A /B /C /D /E 
 /F /G /H /I /J /K /L /M /N /O 
 /P /Q /R /S /T /U /V /W /X /Y 
 /Z /bracketleft /backslash /bracketright /asciicircum /underscore /quoteleft /a /b /c 
 /d /e /f /g /h /i /j /k /l /m 
 /n /o /p /q /r /s /t /u /v /w 
 /x /y /z /braceleft /bar /braceright /asciitilde /.notdef /.notdef /.notdef 
 /.notdef /.notdef /.notdef /.notdef /.notdef /.notdef /.notdef /.notdef /.notdef /.notdef 
 /.notdef /.notdef /.notdef /.notdef /.notdef /.notdef /.notdef /.notdef /.notdef /.notdef 
 /.notdef /.notdef /.notdef /.notdef /.notdef /.notdef /.notdef /.notdef /.notdef /.notdef 
 /space /exclamdown /cent /sterling /currency /yen /brokenbar /section /dieresis /copyright 
 /ordfeminine /guillemotleft /logicalnot /hyphen /registered /macron /degree /plusminus /twosuperior /threesuperior 
 /acute /mu /paragraph /periodcentered /cedilla /onesuperior /ordmasculine /guillemotright /onequarter /onehalf 
 /threequarters /questiondown /Agrave /Aacute /Acircumflex /Atilde /Adieresis /Aring /AE /Ccedilla 
 /Egrave /Eacute /Ecircumflex /Edieresis /Igrave /Iacute /Icircumflex /Idieresis /Eth /Ntilde 
 /Ograve /Oacute /Ocircumflex /Otilde /Odieresis /multiply /Oslash /Ugrave /Uacute /Ucircumflex 
 /Udieresis /Yacute /Thorn /germandbls /agrave /aacute /acircumflex /atilde /adieresis /aring 
 /ae /ccedilla /egrave /eacute /ecircumflex /edieresis /igrave /iacute /icircumflex /idieresis 
 /eth /ntilde /ograve /oacute /ocircumflex /otilde /odieresis /divide /oslash /ugrave 
 /uacute /ucircumflex /udieresis /yacute /thorn /ydieresis] def 
%%EndSetup
1 setlinewidth
isolatin1encoding /_Helvetica /Helvetica RE
/_Helvetica findfont
12 scalefont setfont
0.0 0.0 0.0 setrgbcolor
32 810 translate
0.3427290198590647 0.3427290198590647 scale
-4 -4 translate
newpath
4 -4 moveto
1560 0 rlineto
0 -814 rlineto
-1560 0 rlineto
closepath
clip
1.0 1.0 1.0 setrgbcolor
newpath
688 -520 moveto
249 0 rlineto
0 -70 rlineto
-249 0 rlineto
closepath
eofill
newpath
688 -520 moveto
249 0 rlineto
0 1 rlineto
-249 0 rlineto
closepath
eofill
0.0 0.0 0.0 setrgbcolor
newpath
688 -520 moveto
250 0 rlineto
0 0 rlineto
-250 0 rlineto
closepath
stroke
1.0 1.0 1.0 setrgbcolor
newpath
688 -520 moveto
249 0 rlineto
0 -21 rlineto
-249 0 rlineto
closepath
eofill
isolatin1encoding /_Helvetica /Helvetica RE
/_Helvetica findfont
12 scalefont setfont
0.0 0.0 0.0 setrgbcolor
753 -535 moveto
(Biological-Metabolite) show
1.0 1.0 1.0 setrgbcolor
newpath
688 -563 moveto
249 0 rlineto
0 -26 rlineto
-249 0 rlineto
closepath
eofill
0.0 0.0 0.0 setrgbcolor
newpath
688 -563 moveto
937 -563 lineto
stroke
691 -579 moveto
(make-metabolite\(\) : Biological-Metabolite) show
1.0 1.0 1.0 setrgbcolor
newpath
688 -542 moveto
249 0 rlineto
0 -20 rlineto
-249 0 rlineto
closepath
eofill
0.0 0.0 0.0 setrgbcolor
newpath
688 -542 moveto
937 -542 lineto
stroke
newpath
688 -520 moveto
250 0 rlineto
0 -71 rlineto
-250 0 rlineto
closepath
stroke
1.0 1.0 1.0 setrgbcolor
newpath
544 -400 moveto
235 0 rlineto
0 -88 rlineto
-235 0 rlineto
closepath
eofill
newpath
544 -400 moveto
235 0 rlineto
0 1 rlineto
-235 0 rlineto
closepath
eofill
0.0 0.0 0.0 setrgbcolor
newpath
544 -400 moveto
236 0 rlineto
0 0 rlineto
-236 0 rlineto
closepath
stroke
1.0 1.0 1.0 setrgbcolor
newpath
544 -400 moveto
235 0 rlineto
0 -21 rlineto
-235 0 rlineto
closepath
eofill
0.0 0.0 0.0 setrgbcolor
607 -415 moveto
(Biological-Molecule) show
1.0 1.0 1.0 setrgbcolor
newpath
544 -461 moveto
235 0 rlineto
0 -26 rlineto
-235 0 rlineto
closepath
eofill
0.0 0.0 0.0 setrgbcolor
newpath
544 -461 moveto
779 -461 lineto
stroke
547 -477 moveto
(make-molecule\(\) : Biological-Molecule) show
1.0 1.0 1.0 setrgbcolor
newpath
544 -422 moveto
235 0 rlineto
0 -38 rlineto
-235 0 rlineto
closepath
eofill
0.0 0.0 0.0 setrgbcolor
newpath
544 -422 moveto
779 -422 lineto
stroke
547 -438 moveto
(molecule-name : String) show
547 -453 moveto
(molecule-position : Point3D) show
newpath
544 -400 moveto
236 0 rlineto
0 -89 rlineto
-236 0 rlineto
closepath
stroke
1.0 1.0 1.0 setrgbcolor
newpath
256 -352 moveto
219 0 rlineto
0 -103 rlineto
-219 0 rlineto
closepath
eofill
newpath
256 -352 moveto
219 0 rlineto
0 1 rlineto
-219 0 rlineto
closepath
eofill
0.0 0.0 0.0 setrgbcolor
newpath
256 -352 moveto
220 0 rlineto
0 0 rlineto
-220 0 rlineto
closepath
stroke
1.0 1.0 1.0 setrgbcolor
newpath
256 -352 moveto
219 0 rlineto
0 -21 rlineto
-219 0 rlineto
closepath
eofill
0.0 0.0 0.0 setrgbcolor
311 -367 moveto
(Biological-Reaction) show
1.0 1.0 1.0 setrgbcolor
newpath
256 -428 moveto
219 0 rlineto
0 -26 rlineto
-219 0 rlineto
closepath
eofill
0.0 0.0 0.0 setrgbcolor
newpath
256 -428 moveto
475 -428 lineto
stroke
259 -444 moveto
(make-reaction\(\) : Biological-Reaction) show
1.0 1.0 1.0 setrgbcolor
newpath
256 -374 moveto
219 0 rlineto
0 -53 rlineto
-219 0 rlineto
closepath
eofill
0.0 0.0 0.0 setrgbcolor
newpath
256 -374 moveto
475 -374 lineto
stroke
259 -390 moveto
(reactants : Vector) show
259 -405 moveto
(products : Vector) show
259 -420 moveto
(enzyme : Object) show
newpath
256 -352 moveto
220 0 rlineto
0 -104 rlineto
-220 0 rlineto
closepath
stroke
1.0 1.0 1.0 setrgbcolor
newpath
416 -520 moveto
216 0 rlineto
0 -70 rlineto
-216 0 rlineto
closepath
eofill
newpath
416 -520 moveto
216 0 rlineto
0 1 rlineto
-216 0 rlineto
closepath
eofill
0.0 0.0 0.0 setrgbcolor
newpath
416 -520 moveto
217 0 rlineto
0 0 rlineto
-217 0 rlineto
closepath
stroke
1.0 1.0 1.0 setrgbcolor
newpath
416 -520 moveto
216 0 rlineto
0 -21 rlineto
-216 0 rlineto
closepath
eofill
0.0 0.0 0.0 setrgbcolor
472 -535 moveto
(Biological-Enzyme) show
1.0 1.0 1.0 setrgbcolor
newpath
416 -563 moveto
216 0 rlineto
0 -26 rlineto
-216 0 rlineto
closepath
eofill
0.0 0.0 0.0 setrgbcolor
newpath
416 -563 moveto
632 -563 lineto
stroke
419 -579 moveto
(make-enzyme\(\) : Biological-Enzyme) show
1.0 1.0 1.0 setrgbcolor
newpath
416 -542 moveto
216 0 rlineto
0 -20 rlineto
-216 0 rlineto
closepath
eofill
0.0 0.0 0.0 setrgbcolor
newpath
416 -542 moveto
632 -542 lineto
stroke
newpath
416 -520 moveto
217 0 rlineto
0 -71 rlineto
-217 0 rlineto
closepath
stroke
newpath
476 -456 moveto
544 -456 lineto
stroke
1.0 1.0 1.0 setrgbcolor
newpath
476 -456 moveto
486 -451 lineto
496 -456 lineto
486 -461 lineto
closepath
eofill
0.0 0.0 0.0 setrgbcolor
newpath
476 -456 moveto
486 -451 lineto
496 -456 lineto
486 -461 lineto
closepath
stroke
487 -452 moveto
(1) show
518 -452 moveto
(1..*) show
1.0 1.0 1.0 setrgbcolor
newpath
976 -208 moveto
279 0 rlineto
0 -135 rlineto
-279 0 rlineto
closepath
eofill
newpath
976 -208 moveto
279 0 rlineto
0 1 rlineto
-279 0 rlineto
closepath
eofill
0.0 0.0 0.0 setrgbcolor
newpath
976 -208 moveto
280 0 rlineto
0 0 rlineto
-280 0 rlineto
closepath
stroke
1.0 1.0 1.0 setrgbcolor
newpath
976 -208 moveto
279 0 rlineto
0 -21 rlineto
-279 0 rlineto
closepath
eofill
0.0 0.0 0.0 setrgbcolor
1067 -223 moveto
(Metabolic-Graph) show
1.0 1.0 1.0 setrgbcolor
newpath
976 -270 moveto
279 0 rlineto
0 -72 rlineto
-279 0 rlineto
closepath
eofill
0.0 0.0 0.0 setrgbcolor
newpath
976 -270 moveto
1255 -270 lineto
stroke
979 -286 moveto
(make-metabolic-graph\(\) : Metabolic-Graph) show
979 -301 moveto
(add-nodes-to-metabolic-graph\(\) : void) show
979 -316 moveto
(add-edges-to-metabolic-graph\(\) : void) show
979 -331 moveto
(draw-metabolic-graph\(screen : Screen\) : void) show
1.0 1.0 1.0 setrgbcolor
newpath
976 -230 moveto
279 0 rlineto
0 -39 rlineto
-279 0 rlineto
closepath
eofill
0.0 0.0 0.0 setrgbcolor
newpath
976 -230 moveto
1255 -230 lineto
stroke
979 -246 moveto
(nodes : Vector) show
979 -261 moveto
(edges : Vector) show
newpath
976 -208 moveto
280 0 rlineto
0 -136 rlineto
-280 0 rlineto
closepath
stroke
1.0 1.0 1.0 setrgbcolor
newpath
1304 -488 moveto
256 0 rlineto
0 -118 rlineto
-256 0 rlineto
closepath
eofill
newpath
1304 -488 moveto
256 0 rlineto
0 1 rlineto
-256 0 rlineto
closepath
eofill
0.0 0.0 0.0 setrgbcolor
newpath
1304 -488 moveto
257 0 rlineto
0 0 rlineto
-257 0 rlineto
closepath
stroke
1.0 1.0 1.0 setrgbcolor
newpath
1304 -488 moveto
256 0 rlineto
0 -21 rlineto
-256 0 rlineto
closepath
eofill
0.0 0.0 0.0 setrgbcolor
1396 -503 moveto
(Graph-Edge) show
1.0 1.0 1.0 setrgbcolor
newpath
1304 -564 moveto
256 0 rlineto
0 -41 rlineto
-256 0 rlineto
closepath
eofill
0.0 0.0 0.0 setrgbcolor
newpath
1304 -564 moveto
1560 -564 lineto
stroke
1307 -580 moveto
(make-graph-edge\(\) : Graph-Edge) show
1307 -595 moveto
(draw\(screen : Screen,object : Object\) : void) show
1.0 1.0 1.0 setrgbcolor
newpath
1304 -510 moveto
256 0 rlineto
0 -53 rlineto
-256 0 rlineto
closepath
eofill
0.0 0.0 0.0 setrgbcolor
newpath
1304 -510 moveto
1560 -510 lineto
stroke
1307 -526 moveto
(source-node : Graph-Node) show
1307 -541 moveto
(target-node : Graph-Node) show
1307 -556 moveto
(edge-label : String) show
newpath
1304 -488 moveto
257 0 rlineto
0 -119 rlineto
-257 0 rlineto
closepath
stroke
1.0 1.0 1.0 setrgbcolor
newpath
1008 -488 moveto
256 0 rlineto
0 -133 rlineto
-256 0 rlineto
closepath
eofill
newpath
1008 -488 moveto
256 0 rlineto
0 1 rlineto
-256 0 rlineto
closepath
eofill
0.0 0.0 0.0 setrgbcolor
newpath
1008 -488 moveto
257 0 rlineto
0 0 rlineto
-257 0 rlineto
closepath
stroke
1.0 1.0 1.0 setrgbcolor
newpath
1008 -488 moveto
256 0 rlineto
0 -21 rlineto
-256 0 rlineto
closepath
eofill
0.0 0.0 0.0 setrgbcolor
1099 -503 moveto
(Graph-Node) show
1.0 1.0 1.0 setrgbcolor
newpath
1008 -579 moveto
256 0 rlineto
0 -41 rlineto
-256 0 rlineto
closepath
eofill
0.0 0.0 0.0 setrgbcolor
newpath
1008 -579 moveto
1264 -579 lineto
stroke
1011 -595 moveto
(make-graph-node\(\) : Graph-Node) show
1011 -610 moveto
(draw\(screen : Screen,object : Object\) : void) show
1.0 1.0 1.0 setrgbcolor
newpath
1008 -510 moveto
256 0 rlineto
0 -68 rlineto
-256 0 rlineto
closepath
eofill
0.0 0.0 0.0 setrgbcolor
newpath
1008 -510 moveto
1264 -510 lineto
stroke
1011 -526 moveto
(node-position : Point3D) show
1011 -541 moveto
(node-label : String) show
1011 -556 moveto
(node-type : String) show
1011 -571 moveto
(node-bio : Object) show
newpath
1008 -488 moveto
257 0 rlineto
0 -134 rlineto
-257 0 rlineto
closepath
stroke
1.0 1.0 1.0 setrgbcolor
newpath
696 -176 moveto
168 0 rlineto
0 -118 rlineto
-168 0 rlineto
closepath
eofill
newpath
696 -176 moveto
168 0 rlineto
0 1 rlineto
-168 0 rlineto
closepath
eofill
0.0 0.0 0.0 setrgbcolor
newpath
696 -176 moveto
169 0 rlineto
0 0 rlineto
-169 0 rlineto
closepath
stroke
1.0 1.0 1.0 setrgbcolor
newpath
696 -176 moveto
168 0 rlineto
0 -21 rlineto
-168 0 rlineto
closepath
eofill
0.0 0.0 0.0 setrgbcolor
758 -191 moveto
(Point3D) show
1.0 1.0 1.0 setrgbcolor
newpath
696 -267 moveto
168 0 rlineto
0 -26 rlineto
-168 0 rlineto
closepath
eofill
0.0 0.0 0.0 setrgbcolor
newpath
696 -267 moveto
864 -267 lineto
stroke
699 -283 moveto
(make-point-3d\(\) : Point3D) show
1.0 1.0 1.0 setrgbcolor
newpath
696 -198 moveto
168 0 rlineto
0 -68 rlineto
-168 0 rlineto
closepath
eofill
0.0 0.0 0.0 setrgbcolor
newpath
696 -198 moveto
864 -198 lineto
stroke
699 -214 moveto
(x : int) show
699 -229 moveto
(y : int) show
699 -244 moveto
(z : int) show
699 -259 moveto
(color : int) show
newpath
696 -176 moveto
169 0 rlineto
0 -119 rlineto
-169 0 rlineto
closepath
stroke
newpath
1256 -344 moveto
1304 -488 lineto
stroke
newpath
1256 -344 moveto
1263 -351 lineto
1262 -363 lineto
1254 -355 lineto
closepath
eofill
newpath
1256 -344 moveto
1263 -351 lineto
1262 -363 lineto
1254 -355 lineto
closepath
stroke
newpath
1293 -478 moveto
1304 -488 lineto
stroke
newpath
1306 -474 moveto
1304 -488 lineto
stroke
1279 -366 moveto
(1) show
1269 -479 moveto
(0..*) show
1.0 1.0 1.0 setrgbcolor
newpath
8 -352 moveto
221 0 rlineto
0 -73 rlineto
-221 0 rlineto
closepath
eofill
newpath
8 -352 moveto
221 0 rlineto
0 1 rlineto
-221 0 rlineto
closepath
eofill
0.0 0.0 0.0 setrgbcolor
newpath
8 -352 moveto
222 0 rlineto
0 0 rlineto
-222 0 rlineto
closepath
stroke
1.0 1.0 1.0 setrgbcolor
newpath
8 -352 moveto
221 0 rlineto
0 -21 rlineto
-221 0 rlineto
closepath
eofill
0.0 0.0 0.0 setrgbcolor
65 -367 moveto
(Biological-Pathway) show
1.0 1.0 1.0 setrgbcolor
newpath
8 -398 moveto
221 0 rlineto
0 -26 rlineto
-221 0 rlineto
closepath
eofill
0.0 0.0 0.0 setrgbcolor
newpath
8 -398 moveto
229 -398 lineto
stroke
11 -414 moveto
(make-pathway\(\) : Biological-Pathway) show
1.0 1.0 1.0 setrgbcolor
newpath
8 -374 moveto
221 0 rlineto
0 -23 rlineto
-221 0 rlineto
closepath
eofill
0.0 0.0 0.0 setrgbcolor
newpath
8 -374 moveto
229 -374 lineto
stroke
11 -390 moveto
(reactions : Vector) show
newpath
8 -352 moveto
222 0 rlineto
0 -74 rlineto
-222 0 rlineto
closepath
stroke
1.0 1.0 1.0 setrgbcolor
newpath
168 -184 moveto
207 0 rlineto
0 -118 rlineto
-207 0 rlineto
closepath
eofill
newpath
168 -184 moveto
207 0 rlineto
0 1 rlineto
-207 0 rlineto
closepath
eofill
0.0 0.0 0.0 setrgbcolor
newpath
168 -184 moveto
208 0 rlineto
0 0 rlineto
-208 0 rlineto
closepath
stroke
1.0 1.0 1.0 setrgbcolor
newpath
168 -184 moveto
207 0 rlineto
0 -21 rlineto
-207 0 rlineto
closepath
eofill
isolatin1encoding /_Helvetica-Oblique /Helvetica-Oblique RE
/_Helvetica-Oblique findfont
12 scalefont setfont
0.0 0.0 0.0 setrgbcolor
220 -199 moveto
(Biological-Process) show
1.0 1.0 1.0 setrgbcolor
newpath
168 -245 moveto
207 0 rlineto
0 -56 rlineto
-207 0 rlineto
closepath
eofill
0.0 0.0 0.0 setrgbcolor
newpath
168 -245 moveto
375 -245 lineto
stroke
isolatin1encoding /_Helvetica /Helvetica RE
/_Helvetica findfont
12 scalefont setfont
171 -261 moveto
(insert-biological-process\(\) : void) show
171 -276 moveto
(remove-biological-process\(\) : void) show
171 -291 moveto
(display-biological-process\(\) : void) show
1.0 1.0 1.0 setrgbcolor
newpath
168 -206 moveto
207 0 rlineto
0 -38 rlineto
-207 0 rlineto
closepath
eofill
0.0 0.0 0.0 setrgbcolor
newpath
168 -206 moveto
375 -206 lineto
stroke
171 -222 moveto
(process-name : String) show
171 -237 moveto
(process-position : Point3D) show
newpath
168 -184 moveto
208 0 rlineto
0 -119 rlineto
-208 0 rlineto
closepath
stroke
newpath
40 -352 moveto
40 -280 lineto
168 -280 lineto
stroke
1.0 1.0 1.0 setrgbcolor
newpath
40 -352 moveto
35 -342 lineto
40 -332 lineto
45 -342 lineto
closepath
eofill
0.0 0.0 0.0 setrgbcolor
newpath
40 -352 moveto
35 -342 lineto
40 -332 lineto
45 -342 lineto
closepath
stroke
newpath
156 -287 moveto
168 -280 lineto
stroke
newpath
156 -273 moveto
168 -280 lineto
stroke
20 -337 moveto
(1) show
142 -276 moveto
(0..*) show
newpath
416 -352 moveto
416 -328 lineto
264 -328 lineto
264 -303 lineto
stroke
1.0 1.0 1.0 setrgbcolor
newpath
264 -303 moveto
271 -315 lineto
257 -315 lineto
closepath
eofill
0.0 0.0 0.0 setrgbcolor
newpath
264 -303 moveto
271 -315 lineto
257 -315 lineto
closepath
stroke
1.0 1.0 1.0 setrgbcolor
newpath
1120 -656 moveto
146 0 rlineto
0 -67 rlineto
-146 0 rlineto
closepath
eofill
newpath
1120 -656 moveto
146 0 rlineto
0 1 rlineto
-146 0 rlineto
closepath
eofill
0.0 0.0 0.0 setrgbcolor
newpath
1120 -656 moveto
147 0 rlineto
0 0 rlineto
-147 0 rlineto
closepath
stroke
1.0 1.0 1.0 setrgbcolor
newpath
1120 -656 moveto
146 0 rlineto
0 -21 rlineto
-146 0 rlineto
closepath
eofill
0.0 0.0 0.0 setrgbcolor
1128 -671 moveto
(Graph-Reaction-Node) show
1.0 1.0 1.0 setrgbcolor
newpath
1120 -699 moveto
146 0 rlineto
0 -23 rlineto
-146 0 rlineto
closepath
eofill
0.0 0.0 0.0 setrgbcolor
newpath
1120 -699 moveto
1266 -699 lineto
stroke
1.0 1.0 1.0 setrgbcolor
newpath
1120 -678 moveto
146 0 rlineto
0 -20 rlineto
-146 0 rlineto
closepath
eofill
0.0 0.0 0.0 setrgbcolor
newpath
1120 -678 moveto
1266 -678 lineto
stroke
newpath
1120 -656 moveto
147 0 rlineto
0 -68 rlineto
-147 0 rlineto
closepath
stroke
1.0 1.0 1.0 setrgbcolor
newpath
880 -656 moveto
148 0 rlineto
0 -67 rlineto
-148 0 rlineto
closepath
eofill
newpath
880 -656 moveto
148 0 rlineto
0 1 rlineto
-148 0 rlineto
closepath
eofill
0.0 0.0 0.0 setrgbcolor
newpath
880 -656 moveto
149 0 rlineto
0 0 rlineto
-149 0 rlineto
closepath
stroke
1.0 1.0 1.0 setrgbcolor
newpath
880 -656 moveto
148 0 rlineto
0 -21 rlineto
-148 0 rlineto
closepath
eofill
0.0 0.0 0.0 setrgbcolor
889 -671 moveto
(Graph-Molecule-Node) show
1.0 1.0 1.0 setrgbcolor
newpath
880 -699 moveto
148 0 rlineto
0 -23 rlineto
-148 0 rlineto
closepath
eofill
0.0 0.0 0.0 setrgbcolor
newpath
880 -699 moveto
1028 -699 lineto
stroke
1.0 1.0 1.0 setrgbcolor
newpath
880 -678 moveto
148 0 rlineto
0 -20 rlineto
-148 0 rlineto
closepath
eofill
0.0 0.0 0.0 setrgbcolor
newpath
880 -678 moveto
1028 -678 lineto
stroke
newpath
880 -656 moveto
149 0 rlineto
0 -68 rlineto
-149 0 rlineto
closepath
stroke
newpath
1120 -664 moveto
1064 -664 lineto
1064 -622 lineto
stroke
1.0 1.0 1.0 setrgbcolor
newpath
1064 -622 moveto
1071 -634 lineto
1057 -634 lineto
closepath
eofill
0.0 0.0 0.0 setrgbcolor
newpath
1064 -622 moveto
1071 -634 lineto
1057 -634 lineto
closepath
stroke
newpath
1029 -664 moveto
1064 -664 lineto
1064 -622 lineto
stroke
1.0 1.0 1.0 setrgbcolor
newpath
1064 -622 moveto
1071 -634 lineto
1057 -634 lineto
closepath
eofill
0.0 0.0 0.0 setrgbcolor
newpath
1064 -622 moveto
1071 -634 lineto
1057 -634 lineto
closepath
stroke
newpath
144 -352 moveto
144 -328 lineto
264 -328 lineto
264 -303 lineto
stroke
1.0 1.0 1.0 setrgbcolor
newpath
264 -303 moveto
271 -315 lineto
257 -315 lineto
closepath
eofill
0.0 0.0 0.0 setrgbcolor
newpath
264 -303 moveto
271 -315 lineto
257 -315 lineto
closepath
stroke
newpath
1144 -344 moveto
1144 -488 lineto
stroke
newpath
1144 -344 moveto
1149 -354 lineto
1144 -364 lineto
1139 -354 lineto
closepath
eofill
newpath
1144 -344 moveto
1149 -354 lineto
1144 -364 lineto
1139 -354 lineto
closepath
stroke
newpath
1137 -476 moveto
1144 -488 lineto
stroke
newpath
1151 -476 moveto
1144 -488 lineto
stroke
1156 -371 moveto
(1) show
1115 -478 moveto
(0..*) show
newpath
688 -560 moveto
664 -560 lineto
664 -489 lineto
stroke
1.0 1.0 1.0 setrgbcolor
newpath
664 -489 moveto
671 -501 lineto
657 -501 lineto
closepath
eofill
0.0 0.0 0.0 setrgbcolor
newpath
664 -489 moveto
671 -501 lineto
657 -501 lineto
closepath
stroke
newpath
633 -560 moveto
664 -560 lineto
664 -489 lineto
stroke
1.0 1.0 1.0 setrgbcolor
newpath
664 -489 moveto
671 -501 lineto
657 -501 lineto
closepath
eofill
0.0 0.0 0.0 setrgbcolor
newpath
664 -489 moveto
671 -501 lineto
657 -501 lineto
closepath
stroke
1.0 1.0 1.0 setrgbcolor
newpath
448 -224 moveto
207 0 rlineto
0 -119 rlineto
-207 0 rlineto
closepath
eofill
newpath
448 -224 moveto
207 0 rlineto
0 1 rlineto
-207 0 rlineto
closepath
eofill
0.0 0.0 0.0 setrgbcolor
newpath
448 -224 moveto
208 0 rlineto
0 0 rlineto
-208 0 rlineto
closepath
stroke
1.0 1.0 1.0 setrgbcolor
newpath
448 -224 moveto
207 0 rlineto
0 -21 rlineto
-207 0 rlineto
closepath
eofill
0.0 0.0 0.0 setrgbcolor
497 -239 moveto
(Metabolic-Network) show
1.0 1.0 1.0 setrgbcolor
newpath
448 -285 moveto
207 0 rlineto
0 -57 rlineto
-207 0 rlineto
closepath
eofill
0.0 0.0 0.0 setrgbcolor
newpath
448 -285 moveto
655 -285 lineto
stroke
451 -301 moveto
(make-metabolic-network\(\) : void) show
451 -316 moveto
(insert-biological-process\(\) : void) show
451 -331 moveto
(insert-biological-molecule\(\) : void) show
1.0 1.0 1.0 setrgbcolor
newpath
448 -246 moveto
207 0 rlineto
0 -38 rlineto
-207 0 rlineto
closepath
eofill
0.0 0.0 0.0 setrgbcolor
newpath
448 -246 moveto
655 -246 lineto
stroke
451 -262 moveto
(bio-processes : Vector) show
451 -277 moveto
(bio-objects : Vector) show
newpath
448 -224 moveto
208 0 rlineto
0 -120 rlineto
-208 0 rlineto
closepath
stroke
newpath
576 -344 moveto
576 -400 lineto
stroke
1.0 1.0 1.0 setrgbcolor
newpath
576 -344 moveto
581 -354 lineto
576 -364 lineto
571 -354 lineto
closepath
eofill
0.0 0.0 0.0 setrgbcolor
newpath
576 -344 moveto
581 -354 lineto
576 -364 lineto
571 -354 lineto
closepath
stroke
588 -371 moveto
(1) show
588 -385 moveto
(1) show
newpath
448 -296 moveto
376 -296 lineto
stroke
1.0 1.0 1.0 setrgbcolor
newpath
448 -296 moveto
438 -301 lineto
428 -296 lineto
438 -291 lineto
closepath
eofill
0.0 0.0 0.0 setrgbcolor
newpath
448 -296 moveto
438 -301 lineto
428 -296 lineto
438 -291 lineto
closepath
stroke
429 -292 moveto
(1) show
387 -292 moveto
(1) show
newpath
1184 -724 moveto
1184 -784 lineto
352 -784 lineto
352 -456 lineto
stroke
1.0 1.0 1.0 setrgbcolor
newpath
1184 -724 moveto
1189 -734 lineto
1184 -744 lineto
1179 -734 lineto
closepath
eofill
0.0 0.0 0.0 setrgbcolor
newpath
1184 -724 moveto
1189 -734 lineto
1184 -744 lineto
1179 -734 lineto
closepath
stroke
1196 -751 moveto
(1) show
332 -483 moveto
(1) show
newpath
968 -656 moveto
968 -536 lineto
904 -472 lineto
780 -472 lineto
stroke
1.0 1.0 1.0 setrgbcolor
newpath
968 -656 moveto
963 -646 lineto
968 -636 lineto
973 -646 lineto
closepath
eofill
0.0 0.0 0.0 setrgbcolor
newpath
968 -656 moveto
963 -646 lineto
968 -636 lineto
973 -646 lineto
closepath
stroke
948 -641 moveto
(1) show
791 -468 moveto
(1) show
newpath
400 -456 moveto
400 -560 lineto
416 -560 lineto
stroke
1.0 1.0 1.0 setrgbcolor
newpath
400 -456 moveto
405 -466 lineto
400 -476 lineto
395 -466 lineto
closepath
eofill
0.0 0.0 0.0 setrgbcolor
newpath
400 -456 moveto
405 -466 lineto
400 -476 lineto
395 -466 lineto
closepath
stroke
412 -483 moveto
(1) show
397 -523 moveto
(1) show
1.0 1.0 1.0 setrgbcolor
newpath
712 -8 moveto
241 0 rlineto
0 -148 rlineto
-241 0 rlineto
closepath
eofill
newpath
712 -8 moveto
241 0 rlineto
0 1 rlineto
-241 0 rlineto
closepath
eofill
0.0 0.0 0.0 setrgbcolor
newpath
712 -8 moveto
242 0 rlineto
0 0 rlineto
-242 0 rlineto
closepath
stroke
1.0 1.0 1.0 setrgbcolor
newpath
712 -8 moveto
241 0 rlineto
0 -21 rlineto
-241 0 rlineto
closepath
eofill
0.0 0.0 0.0 setrgbcolor
801 -23 moveto
(Application) show
1.0 1.0 1.0 setrgbcolor
newpath
712 -84 moveto
241 0 rlineto
0 -71 rlineto
-241 0 rlineto
closepath
eofill
0.0 0.0 0.0 setrgbcolor
newpath
712 -84 moveto
953 -84 lineto
stroke
715 -100 moveto
(load-meta-tool-file\(path : String\) : void) show
715 -115 moveto
(initialise-positions\(\) : void) show
715 -130 moveto
(apply-layout-paradigm\(\) : void) show
715 -145 moveto
(visualise-metabolic-network\(\) : void) show
1.0 1.0 1.0 setrgbcolor
newpath
712 -30 moveto
241 0 rlineto
0 -53 rlineto
-241 0 rlineto
closepath
eofill
0.0 0.0 0.0 setrgbcolor
newpath
712 -30 moveto
953 -30 lineto
stroke
715 -46 moveto
(metabolic-network : Metabolic-Network) show
715 -61 moveto
(graphic-network : Metabolic-Graph) show
715 -76 moveto
(opengl-view : OpenGL-Visualisation) show
newpath
712 -8 moveto
242 0 rlineto
0 -149 rlineto
-242 0 rlineto
closepath
stroke
newpath
1008 -488 moveto
865 -295 lineto
stroke
1.0 1.0 1.0 setrgbcolor
newpath
1008 -488 moveto
998 -482 lineto
997 -472 lineto
1006 -476 lineto
closepath
eofill
0.0 0.0 0.0 setrgbcolor
newpath
1008 -488 moveto
998 -482 lineto
997 -472 lineto
1006 -476 lineto
closepath
stroke
1006 -466 moveto
(1) show
845 -319 moveto
(1) show
newpath
736 -400 moveto
736 -295 lineto
stroke
1.0 1.0 1.0 setrgbcolor
newpath
736 -400 moveto
731 -390 lineto
736 -380 lineto
741 -390 lineto
closepath
eofill
0.0 0.0 0.0 setrgbcolor
newpath
736 -400 moveto
731 -390 lineto
736 -380 lineto
741 -390 lineto
closepath
stroke
716 -385 moveto
(1) show
716 -322 moveto
(1) show
newpath
376 -200 moveto
696 -200 lineto
stroke
1.0 1.0 1.0 setrgbcolor
newpath
376 -200 moveto
386 -195 lineto
396 -200 lineto
386 -205 lineto
closepath
eofill
0.0 0.0 0.0 setrgbcolor
newpath
376 -200 moveto
386 -195 lineto
396 -200 lineto
386 -205 lineto
closepath
stroke
387 -196 moveto
(1) show
677 -196 moveto
(1) show
newpath
712 -157 moveto
648 -160 lineto
648 -224 lineto
stroke
1.0 1.0 1.0 setrgbcolor
newpath
712 -157 moveto
702 -162 lineto
692 -157 lineto
701 -152 lineto
closepath
eofill
0.0 0.0 0.0 setrgbcolor
newpath
712 -157 moveto
702 -162 lineto
692 -157 lineto
701 -152 lineto
closepath
stroke
693 -153 moveto
(1) show
660 -209 moveto
(1) show
newpath
954 -157 moveto
976 -208 lineto
stroke
1.0 1.0 1.0 setrgbcolor
newpath
954 -157 moveto
962 -164 lineto
962 -175 lineto
953 -168 lineto
closepath
eofill
0.0 0.0 0.0 setrgbcolor
newpath
954 -157 moveto
962 -164 lineto
962 -175 lineto
953 -168 lineto
closepath
stroke
975 -176 moveto
(1) show
980 -187 moveto
(1) show
showpage
%%Trailer
