%!PS-Adobe-3.0
%%BeginProcSet: reencode 1.0 0 
/RE 
{  findfont begin 
  currentdict dup length dict begin 
  {1 index /FID ne {def} {pop pop} ifelse} forall 
  /FontName exch def dup length 0 ne 
  { /Encoding Encoding 256 array copy def 
      0 exch 
      { dup type /nametype eq 
        { Encoding 2 index 2 index put 
          pop 1 add 
        } 
        { exch pop 
        } ifelse 
      } forall 
  } if pop 
  currentdict dup end end 
  /FontName get exch definefont pop 
    } bind def 
%%EndProcSet: reencode 1.0 0 
%%BeginProcSet: ellipse 1.0 0 
/ellipsedict 8 dict def 
ellipsedict /mtrx matrix put 
/ellipse { ellipsedict begin 
/endangle exch def 
/startangle exch def 
/yrad exch def 
/xrad exch def 
/y exch def 
/x exch def 
/savematrix mtrx currentmatrix def 
x y translate 
xrad yrad scale 
0 0 1 0 360 arc 
savematrix setmatrix end } def 
%%EndProcSet: ellipse 1.0 0 
%%EndProlog
%%BeginSetup
/isolatin1encoding 
[ 32 /space /exclam /quotedbl /numbersign /dollar /percent /ampersand /quoteright 
 /parenleft /parenright /asterisk /plus /comma /hyphen /period /slash /zero /one 
 /two /three /four /five /six /seven /eight /nine /colon /semicolon 
 /less /equal /greater /question /at /A /B /C /D /E 
 /F /G /H /I /J /K /L /M /N /O 
 /P /Q /R /S /T /U /V /W /X /Y 
 /Z /bracketleft /backslash /bracketright /asciicircum /underscore /quoteleft /a /b /c 
 /d /e /f /g /h /i /j /k /l /m 
 /n /o /p /q /r /s /t /u /v /w 
 /x /y /z /braceleft /bar /braceright /asciitilde /.notdef /.notdef /.notdef 
 /.notdef /.notdef /.notdef /.notdef /.notdef /.notdef /.notdef /.notdef /.notdef /.notdef 
 /.notdef /.notdef /.notdef /.notdef /.notdef /.notdef /.notdef /.notdef /.notdef /.notdef 
 /.notdef /.notdef /.notdef /.notdef /.notdef /.notdef /.notdef /.notdef /.notdef /.notdef 
 /space /exclamdown /cent /sterling /currency /yen /brokenbar /section /dieresis /copyright 
 /ordfeminine /guillemotleft /logicalnot /hyphen /registered /macron /degree /plusminus /twosuperior /threesuperior 
 /acute /mu /paragraph /periodcentered /cedilla /onesuperior /ordmasculine /guillemotright /onequarter /onehalf 
 /threequarters /questiondown /Agrave /Aacute /Acircumflex /Atilde /Adieresis /Aring /AE /Ccedilla 
 /Egrave /Eacute /Ecircumflex /Edieresis /Igrave /Iacute /Icircumflex /Idieresis /Eth /Ntilde 
 /Ograve /Oacute /Ocircumflex /Otilde /Odieresis /multiply /Oslash /Ugrave /Uacute /Ucircumflex 
 /Udieresis /Yacute /Thorn /germandbls /agrave /aacute /acircumflex /atilde /adieresis /aring 
 /ae /ccedilla /egrave /eacute /ecircumflex /edieresis /igrave /iacute /icircumflex /idieresis 
 /eth /ntilde /ograve /oacute /ocircumflex /otilde /odieresis /divide /oslash /ugrave 
 /uacute /ucircumflex /udieresis /yacute /thorn /ydieresis] def 
%%EndSetup
1 setlinewidth
isolatin1encoding /_Helvetica /Helvetica RE
/_Helvetica findfont
12 scalefont setfont
0.0 0.0 0.0 setrgbcolor
32 810 translate
0.6721105527638191 0.6721105527638191 scale
-1 -2 translate
newpath
1 -2 moveto
795 0 rlineto
0 -401 rlineto
-795 0 rlineto
closepath
clip
1.0 1.0 1.0 setrgbcolor
newpath
205 -6 moveto
213 0 rlineto
0 -199 rlineto
-213 0 rlineto
closepath
eofill
newpath
205 -6 moveto
213 0 rlineto
0 1 rlineto
-213 0 rlineto
closepath
eofill
0.0 0.0 0.0 setrgbcolor
newpath
205 -6 moveto
214 0 rlineto
0 0 rlineto
-214 0 rlineto
closepath
stroke
1.0 1.0 1.0 setrgbcolor
newpath
205 -6 moveto
213 0 rlineto
0 -21 rlineto
-213 0 rlineto
closepath
eofill
isolatin1encoding /_Helvetica /Helvetica RE
/_Helvetica findfont
12 scalefont setfont
0.0 0.0 0.0 setrgbcolor
286 -21 moveto
(Shape3D) show
1.0 1.0 1.0 setrgbcolor
newpath
205 -100 moveto
213 0 rlineto
0 -104 rlineto
-213 0 rlineto
closepath
eofill
0.0 0.0 0.0 setrgbcolor
newpath
205 -100 moveto
418 -100 lineto
stroke
208 -116 moveto
(draw\(\) : void) show
208 -131 moveto
(move\(\) : void) show
208 -146 moveto
(rotate\(\) : void) show
208 -161 moveto
(add\(component : Shape3D\) : Vector) show
208 -176 moveto
(remove\(id : int\) : void) show
208 -191 moveto
(getChild\(id : int\) : Shape3D) show
1.0 1.0 1.0 setrgbcolor
newpath
205 -28 moveto
213 0 rlineto
0 -71 rlineto
-213 0 rlineto
closepath
eofill
0.0 0.0 0.0 setrgbcolor
newpath
205 -28 moveto
418 -28 lineto
stroke
208 -44 moveto
(index : int) show
208 -59 moveto
(size : float) show
208 -74 moveto
(selected : Boolean) show
208 -89 moveto
(color : int) show
newpath
205 -6 moveto
214 0 rlineto
0 -200 rlineto
-214 0 rlineto
closepath
stroke
1.0 1.0 1.0 setrgbcolor
newpath
573 -254 moveto
214 0 rlineto
0 -145 rlineto
-214 0 rlineto
closepath
eofill
newpath
573 -254 moveto
214 0 rlineto
0 1 rlineto
-214 0 rlineto
closepath
eofill
0.0 0.0 0.0 setrgbcolor
newpath
573 -254 moveto
215 0 rlineto
0 0 rlineto
-215 0 rlineto
closepath
stroke
1.0 1.0 1.0 setrgbcolor
newpath
573 -254 moveto
214 0 rlineto
0 -21 rlineto
-214 0 rlineto
closepath
eofill
0.0 0.0 0.0 setrgbcolor
635 -269 moveto
(BoundingBox3D) show
1.0 1.0 1.0 setrgbcolor
newpath
573 -297 moveto
214 0 rlineto
0 -101 rlineto
-214 0 rlineto
closepath
eofill
0.0 0.0 0.0 setrgbcolor
newpath
573 -297 moveto
787 -297 lineto
stroke
576 -313 moveto
(add\(component : Shape3D\) : Vector) show
576 -328 moveto
(remove\(id : int\) : void) show
576 -343 moveto
(getChild\(id : int\) : Shape3D) show
576 -358 moveto
(draw\(\) : void) show
576 -373 moveto
(move\(\) : void) show
576 -388 moveto
(rotate\(\) : void) show
1.0 1.0 1.0 setrgbcolor
newpath
573 -276 moveto
214 0 rlineto
0 -20 rlineto
-214 0 rlineto
closepath
eofill
0.0 0.0 0.0 setrgbcolor
newpath
573 -276 moveto
787 -276 lineto
stroke
newpath
573 -254 moveto
215 0 rlineto
0 -146 rlineto
-215 0 rlineto
closepath
stroke
newpath
634 -254 moveto
634 -244 lineto
306 -244 lineto
306 -206 lineto
stroke
1.0 1.0 1.0 setrgbcolor
newpath
306 -206 moveto
313 -218 lineto
299 -218 lineto
closepath
eofill
0.0 0.0 0.0 setrgbcolor
newpath
306 -206 moveto
313 -218 lineto
299 -218 lineto
closepath
stroke
newpath
762 -254 moveto
762 -60 lineto
419 -60 lineto
stroke
1.0 1.0 1.0 setrgbcolor
newpath
762 -254 moveto
757 -244 lineto
762 -234 lineto
767 -244 lineto
closepath
eofill
0.0 0.0 0.0 setrgbcolor
newpath
762 -254 moveto
757 -244 lineto
762 -234 lineto
767 -244 lineto
closepath
stroke
newpath
431 -53 moveto
419 -60 lineto
stroke
newpath
431 -67 moveto
419 -60 lineto
stroke
742 -239 moveto
(1) show
423 -56 moveto
(0..*) show
448 -78 moveto
(children) show
1.0 1.0 1.0 setrgbcolor
newpath
573 -118 moveto
715 -118 lineto
725 -128 lineto
725 -182 lineto
573 -182 lineto
573 -118 lineto
closepath
eofill
0.0 0.0 0.0 setrgbcolor
newpath
573 -118 moveto
715 -118 lineto
725 -128 lineto
725 -182 lineto
573 -182 lineto
573 -118 lineto
stroke
1.0 1.0 1.0 setrgbcolor
newpath
715 -118 moveto
725 -128 lineto
715 -128 lineto
715 -118 lineto
closepath
eofill
0.0 0.0 0.0 setrgbcolor
newpath
715 -118 moveto
725 -128 lineto
715 -128 lineto
715 -118 lineto
stroke
575 -135 moveto
(draw\(\) {) show
575 -150 moveto
(    for child in children) show
575 -165 moveto
(         child.draw\(\)) show
575 -180 moveto
(}) show
[5.0 5.0 ] 0 setdash
newpath
691 -254 moveto
691 -183 lineto
stroke
1.0 1.0 1.0 setrgbcolor
newpath
117 -254 moveto
95 0 rlineto
0 -100 rlineto
-95 0 rlineto
closepath
eofill
newpath
117 -254 moveto
95 0 rlineto
0 1 rlineto
-95 0 rlineto
closepath
eofill
0.0 0.0 0.0 setrgbcolor
newpath
117 -254 moveto
96 0 rlineto
0 0 rlineto
-96 0 rlineto
closepath
stroke
1.0 1.0 1.0 setrgbcolor
newpath
117 -254 moveto
95 0 rlineto
0 -21 rlineto
-95 0 rlineto
closepath
eofill
0.0 0.0 0.0 setrgbcolor
150 -269 moveto
(Cube) show
1.0 1.0 1.0 setrgbcolor
newpath
117 -297 moveto
95 0 rlineto
0 -56 rlineto
-95 0 rlineto
closepath
eofill
0.0 0.0 0.0 setrgbcolor
[] 0 setdash
newpath
117 -297 moveto
212 -297 lineto
stroke
120 -313 moveto
(draw\(\) : void) show
120 -328 moveto
(move\(\) : void) show
120 -343 moveto
(rotate\(\) : void) show
1.0 1.0 1.0 setrgbcolor
newpath
117 -276 moveto
95 0 rlineto
0 -20 rlineto
-95 0 rlineto
closepath
eofill
0.0 0.0 0.0 setrgbcolor
newpath
117 -276 moveto
212 -276 lineto
stroke
newpath
117 -254 moveto
96 0 rlineto
0 -101 rlineto
-96 0 rlineto
closepath
stroke
1.0 1.0 1.0 setrgbcolor
newpath
341 -254 moveto
95 0 rlineto
0 -100 rlineto
-95 0 rlineto
closepath
eofill
newpath
341 -254 moveto
95 0 rlineto
0 1 rlineto
-95 0 rlineto
closepath
eofill
0.0 0.0 0.0 setrgbcolor
newpath
341 -254 moveto
96 0 rlineto
0 0 rlineto
-96 0 rlineto
closepath
stroke
1.0 1.0 1.0 setrgbcolor
newpath
341 -254 moveto
95 0 rlineto
0 -21 rlineto
-95 0 rlineto
closepath
eofill
0.0 0.0 0.0 setrgbcolor
369 -269 moveto
(Sphere) show
1.0 1.0 1.0 setrgbcolor
newpath
341 -297 moveto
95 0 rlineto
0 -56 rlineto
-95 0 rlineto
closepath
eofill
0.0 0.0 0.0 setrgbcolor
newpath
341 -297 moveto
436 -297 lineto
stroke
344 -313 moveto
(draw\(\) : void) show
344 -328 moveto
(move\(\) : void) show
344 -343 moveto
(rotate\(\) : void) show
1.0 1.0 1.0 setrgbcolor
newpath
341 -276 moveto
95 0 rlineto
0 -20 rlineto
-95 0 rlineto
closepath
eofill
0.0 0.0 0.0 setrgbcolor
newpath
341 -276 moveto
436 -276 lineto
stroke
newpath
341 -254 moveto
96 0 rlineto
0 -101 rlineto
-96 0 rlineto
closepath
stroke
1.0 1.0 1.0 setrgbcolor
newpath
229 -254 moveto
95 0 rlineto
0 -100 rlineto
-95 0 rlineto
closepath
eofill
newpath
229 -254 moveto
95 0 rlineto
0 1 rlineto
-95 0 rlineto
closepath
eofill
0.0 0.0 0.0 setrgbcolor
newpath
229 -254 moveto
96 0 rlineto
0 0 rlineto
-96 0 rlineto
closepath
stroke
1.0 1.0 1.0 setrgbcolor
newpath
229 -254 moveto
95 0 rlineto
0 -21 rlineto
-95 0 rlineto
closepath
eofill
0.0 0.0 0.0 setrgbcolor
257 -269 moveto
(Line3D) show
1.0 1.0 1.0 setrgbcolor
newpath
229 -297 moveto
95 0 rlineto
0 -56 rlineto
-95 0 rlineto
closepath
eofill
0.0 0.0 0.0 setrgbcolor
newpath
229 -297 moveto
324 -297 lineto
stroke
232 -313 moveto
(draw\(\) : void) show
232 -328 moveto
(move\(\) : void) show
232 -343 moveto
(rotate\(\) : void) show
1.0 1.0 1.0 setrgbcolor
newpath
229 -276 moveto
95 0 rlineto
0 -20 rlineto
-95 0 rlineto
closepath
eofill
0.0 0.0 0.0 setrgbcolor
newpath
229 -276 moveto
324 -276 lineto
stroke
newpath
229 -254 moveto
96 0 rlineto
0 -101 rlineto
-96 0 rlineto
closepath
stroke
1.0 1.0 1.0 setrgbcolor
newpath
5 -254 moveto
95 0 rlineto
0 -100 rlineto
-95 0 rlineto
closepath
eofill
newpath
5 -254 moveto
95 0 rlineto
0 1 rlineto
-95 0 rlineto
closepath
eofill
0.0 0.0 0.0 setrgbcolor
newpath
5 -254 moveto
96 0 rlineto
0 0 rlineto
-96 0 rlineto
closepath
stroke
1.0 1.0 1.0 setrgbcolor
newpath
5 -254 moveto
95 0 rlineto
0 -21 rlineto
-95 0 rlineto
closepath
eofill
0.0 0.0 0.0 setrgbcolor
27 -269 moveto
(Arrow3D) show
1.0 1.0 1.0 setrgbcolor
newpath
5 -297 moveto
95 0 rlineto
0 -56 rlineto
-95 0 rlineto
closepath
eofill
0.0 0.0 0.0 setrgbcolor
newpath
5 -297 moveto
100 -297 lineto
stroke
8 -313 moveto
(draw\(\) : void) show
8 -328 moveto
(move\(\) : void) show
8 -343 moveto
(rotate\(\) : void) show
1.0 1.0 1.0 setrgbcolor
newpath
5 -276 moveto
95 0 rlineto
0 -20 rlineto
-95 0 rlineto
closepath
eofill
0.0 0.0 0.0 setrgbcolor
newpath
5 -276 moveto
100 -276 lineto
stroke
newpath
5 -254 moveto
96 0 rlineto
0 -101 rlineto
-96 0 rlineto
closepath
stroke
1.0 1.0 1.0 setrgbcolor
newpath
453 -254 moveto
95 0 rlineto
0 -100 rlineto
-95 0 rlineto
closepath
eofill
newpath
453 -254 moveto
95 0 rlineto
0 1 rlineto
-95 0 rlineto
closepath
eofill
0.0 0.0 0.0 setrgbcolor
newpath
453 -254 moveto
96 0 rlineto
0 0 rlineto
-96 0 rlineto
closepath
stroke
1.0 1.0 1.0 setrgbcolor
newpath
453 -254 moveto
95 0 rlineto
0 -21 rlineto
-95 0 rlineto
closepath
eofill
0.0 0.0 0.0 setrgbcolor
479 -269 moveto
(Text3D) show
1.0 1.0 1.0 setrgbcolor
newpath
453 -297 moveto
95 0 rlineto
0 -56 rlineto
-95 0 rlineto
closepath
eofill
0.0 0.0 0.0 setrgbcolor
newpath
453 -297 moveto
548 -297 lineto
stroke
456 -313 moveto
(draw\(\) : void) show
456 -328 moveto
(move\(\) : void) show
456 -343 moveto
(rotate\(\) : void) show
1.0 1.0 1.0 setrgbcolor
newpath
453 -276 moveto
95 0 rlineto
0 -20 rlineto
-95 0 rlineto
closepath
eofill
0.0 0.0 0.0 setrgbcolor
newpath
453 -276 moveto
548 -276 lineto
stroke
newpath
453 -254 moveto
96 0 rlineto
0 -101 rlineto
-96 0 rlineto
closepath
stroke
newpath
58 -254 moveto
58 -244 lineto
306 -244 lineto
306 -206 lineto
stroke
1.0 1.0 1.0 setrgbcolor
newpath
306 -206 moveto
313 -218 lineto
299 -218 lineto
closepath
eofill
0.0 0.0 0.0 setrgbcolor
newpath
306 -206 moveto
313 -218 lineto
299 -218 lineto
closepath
stroke
newpath
170 -254 moveto
170 -244 lineto
306 -244 lineto
306 -206 lineto
stroke
1.0 1.0 1.0 setrgbcolor
newpath
306 -206 moveto
313 -218 lineto
299 -218 lineto
closepath
eofill
0.0 0.0 0.0 setrgbcolor
newpath
306 -206 moveto
313 -218 lineto
299 -218 lineto
closepath
stroke
newpath
306 -254 moveto
306 -206 lineto
stroke
1.0 1.0 1.0 setrgbcolor
newpath
306 -206 moveto
313 -218 lineto
299 -218 lineto
closepath
eofill
0.0 0.0 0.0 setrgbcolor
newpath
306 -206 moveto
313 -218 lineto
299 -218 lineto
closepath
stroke
newpath
394 -254 moveto
394 -244 lineto
306 -244 lineto
306 -206 lineto
stroke
1.0 1.0 1.0 setrgbcolor
newpath
306 -206 moveto
313 -218 lineto
299 -218 lineto
closepath
eofill
0.0 0.0 0.0 setrgbcolor
newpath
306 -206 moveto
313 -218 lineto
299 -218 lineto
closepath
stroke
newpath
506 -254 moveto
506 -244 lineto
306 -244 lineto
306 -206 lineto
stroke
1.0 1.0 1.0 setrgbcolor
newpath
306 -206 moveto
313 -218 lineto
299 -218 lineto
closepath
eofill
0.0 0.0 0.0 setrgbcolor
newpath
306 -206 moveto
313 -218 lineto
299 -218 lineto
closepath
stroke
showpage
%%Trailer
