%!PS-Adobe-3.0
%%BeginProcSet: reencode 1.0 0 
/RE 
{  findfont begin 
  currentdict dup length dict begin 
  {1 index /FID ne {def} {pop pop} ifelse} forall 
  /FontName exch def dup length 0 ne 
  { /Encoding Encoding 256 array copy def 
      0 exch 
      { dup type /nametype eq 
        { Encoding 2 index 2 index put 
          pop 1 add 
        } 
        { exch pop 
        } ifelse 
      } forall 
  } if pop 
  currentdict dup end end 
  /FontName get exch definefont pop 
    } bind def 
%%EndProcSet: reencode 1.0 0 
%%BeginProcSet: ellipse 1.0 0 
/ellipsedict 8 dict def 
ellipsedict /mtrx matrix put 
/ellipse { ellipsedict begin 
/endangle exch def 
/startangle exch def 
/yrad exch def 
/xrad exch def 
/y exch def 
/x exch def 
/savematrix mtrx currentmatrix def 
x y translate 
xrad yrad scale 
0 0 1 0 360 arc 
savematrix setmatrix end } def 
%%EndProcSet: ellipse 1.0 0 
%%EndProlog
%%BeginSetup
/isolatin1encoding 
[ 32 /space /exclam /quotedbl /numbersign /dollar /percent /ampersand /quoteright 
 /parenleft /parenright /asterisk /plus /comma /hyphen /period /slash /zero /one 
 /two /three /four /five /six /seven /eight /nine /colon /semicolon 
 /less /equal /greater /question /at /A /B /C /D /E 
 /F /G /H /I /J /K /L /M /N /O 
 /P /Q /R /S /T /U /V /W /X /Y 
 /Z /bracketleft /backslash /bracketright /asciicircum /underscore /quoteleft /a /b /c 
 /d /e /f /g /h /i /j /k /l /m 
 /n /o /p /q /r /s /t /u /v /w 
 /x /y /z /braceleft /bar /braceright /asciitilde /.notdef /.notdef /.notdef 
 /.notdef /.notdef /.notdef /.notdef /.notdef /.notdef /.notdef /.notdef /.notdef /.notdef 
 /.notdef /.notdef /.notdef /.notdef /.notdef /.notdef /.notdef /.notdef /.notdef /.notdef 
 /.notdef /.notdef /.notdef /.notdef /.notdef /.notdef /.notdef /.notdef /.notdef /.notdef 
 /space /exclamdown /cent /sterling /currency /yen /brokenbar /section /dieresis /copyright 
 /ordfeminine /guillemotleft /logicalnot /hyphen /registered /macron /degree /plusminus /twosuperior /threesuperior 
 /acute /mu /paragraph /periodcentered /cedilla /onesuperior /ordmasculine /guillemotright /onequarter /onehalf 
 /threequarters /questiondown /Agrave /Aacute /Acircumflex /Atilde /Adieresis /Aring /AE /Ccedilla 
 /Egrave /Eacute /Ecircumflex /Edieresis /Igrave /Iacute /Icircumflex /Idieresis /Eth /Ntilde 
 /Ograve /Oacute /Ocircumflex /Otilde /Odieresis /multiply /Oslash /Ugrave /Uacute /Ucircumflex 
 /Udieresis /Yacute /Thorn /germandbls /agrave /aacute /acircumflex /atilde /adieresis /aring 
 /ae /ccedilla /egrave /eacute /ecircumflex /edieresis /igrave /iacute /icircumflex /idieresis 
 /eth /ntilde /ograve /oacute /ocircumflex /otilde /odieresis /divide /oslash /ugrave 
 /uacute /ucircumflex /udieresis /yacute /thorn /ydieresis] def 
%%EndSetup
1 setlinewidth
isolatin1encoding /_Helvetica /Helvetica RE
/_Helvetica findfont
12 scalefont setfont
0.0 0.0 0.0 setrgbcolor
32 810 translate
0.9256055363321799 0.9256055363321799 scale
-76 -12 translate
newpath
76 -12 moveto
577 0 rlineto
0 -467 rlineto
-577 0 rlineto
closepath
clip
1.0 1.0 1.0 setrgbcolor
newpath
224 -16 moveto
270 0 rlineto
0 -133 rlineto
-270 0 rlineto
closepath
eofill
newpath
224 -16 moveto
270 0 rlineto
0 1 rlineto
-270 0 rlineto
closepath
eofill
0.0 0.0 0.0 setrgbcolor
newpath
224 -16 moveto
271 0 rlineto
0 0 rlineto
-271 0 rlineto
closepath
stroke
1.0 1.0 1.0 setrgbcolor
newpath
224 -16 moveto
270 0 rlineto
0 -21 rlineto
-270 0 rlineto
closepath
eofill
isolatin1encoding /_Helvetica /Helvetica RE
/_Helvetica findfont
12 scalefont setfont
0.0 0.0 0.0 setrgbcolor
310 -31 moveto
(Metabolic-Graph) show
1.0 1.0 1.0 setrgbcolor
newpath
224 -77 moveto
270 0 rlineto
0 -71 rlineto
-270 0 rlineto
closepath
eofill
0.0 0.0 0.0 setrgbcolor
newpath
224 -77 moveto
494 -77 lineto
stroke
227 -93 moveto
(make-metabolic-graph\(\) : Metabolic-Graph) show
227 -108 moveto
(add-nodes-to-metabolic-graph\(\) : void) show
227 -123 moveto
(add-edges-to-metabolic-graph\(\) : void) show
227 -138 moveto
(draw-metabolic-graph\(screen : Screen\) : void) show
1.0 1.0 1.0 setrgbcolor
newpath
224 -38 moveto
270 0 rlineto
0 -38 rlineto
-270 0 rlineto
closepath
eofill
0.0 0.0 0.0 setrgbcolor
newpath
224 -38 moveto
494 -38 lineto
stroke
227 -54 moveto
(nodes : Vector) show
227 -69 moveto
(edges : Vector) show
newpath
224 -16 moveto
271 0 rlineto
0 -134 rlineto
-271 0 rlineto
closepath
stroke
1.0 1.0 1.0 setrgbcolor
newpath
360 -224 moveto
256 0 rlineto
0 -133 rlineto
-256 0 rlineto
closepath
eofill
newpath
360 -224 moveto
256 0 rlineto
0 1 rlineto
-256 0 rlineto
closepath
eofill
0.0 0.0 0.0 setrgbcolor
newpath
360 -224 moveto
257 0 rlineto
0 0 rlineto
-257 0 rlineto
closepath
stroke
1.0 1.0 1.0 setrgbcolor
newpath
360 -224 moveto
256 0 rlineto
0 -21 rlineto
-256 0 rlineto
closepath
eofill
0.0 0.0 0.0 setrgbcolor
451 -239 moveto
(Graph-Node) show
1.0 1.0 1.0 setrgbcolor
newpath
360 -315 moveto
256 0 rlineto
0 -41 rlineto
-256 0 rlineto
closepath
eofill
0.0 0.0 0.0 setrgbcolor
newpath
360 -315 moveto
616 -315 lineto
stroke
363 -331 moveto
(make-graph-node\(\) : Graph-Node) show
363 -346 moveto
(draw\(screen : Screen,object : Object\) : void) show
1.0 1.0 1.0 setrgbcolor
newpath
360 -246 moveto
256 0 rlineto
0 -68 rlineto
-256 0 rlineto
closepath
eofill
0.0 0.0 0.0 setrgbcolor
newpath
360 -246 moveto
616 -246 lineto
stroke
363 -262 moveto
(node-position : Point3D) show
363 -277 moveto
(node-label : String) show
363 -292 moveto
(node-type : String) show
363 -307 moveto
(node-bio : Object) show
newpath
360 -224 moveto
257 0 rlineto
0 -134 rlineto
-257 0 rlineto
closepath
stroke
newpath
360 -150 moveto
360 -192 lineto
480 -192 lineto
480 -224 lineto
stroke
newpath
360 -150 moveto
365 -160 lineto
360 -170 lineto
355 -160 lineto
closepath
eofill
newpath
360 -150 moveto
365 -160 lineto
360 -170 lineto
355 -160 lineto
closepath
stroke
newpath
473 -212 moveto
480 -224 lineto
stroke
newpath
487 -212 moveto
480 -224 lineto
stroke
372 -177 moveto
(1) show
485 -209 moveto
(0..*) show
1.0 1.0 1.0 setrgbcolor
newpath
80 -224 moveto
256 0 rlineto
0 -135 rlineto
-256 0 rlineto
closepath
eofill
newpath
80 -224 moveto
256 0 rlineto
0 1 rlineto
-256 0 rlineto
closepath
eofill
0.0 0.0 0.0 setrgbcolor
newpath
80 -224 moveto
257 0 rlineto
0 0 rlineto
-257 0 rlineto
closepath
stroke
1.0 1.0 1.0 setrgbcolor
newpath
80 -224 moveto
256 0 rlineto
0 -21 rlineto
-256 0 rlineto
closepath
eofill
0.0 0.0 0.0 setrgbcolor
172 -239 moveto
(Graph-Edge) show
1.0 1.0 1.0 setrgbcolor
newpath
80 -308 moveto
256 0 rlineto
0 -50 rlineto
-256 0 rlineto
closepath
eofill
0.0 0.0 0.0 setrgbcolor
newpath
80 -308 moveto
336 -308 lineto
stroke
83 -324 moveto
(make-graph-edge\(\) : Graph-Edge) show
83 -339 moveto
(draw\(screen : Screen,object : Object\) : void) show
1.0 1.0 1.0 setrgbcolor
newpath
80 -246 moveto
256 0 rlineto
0 -61 rlineto
-256 0 rlineto
closepath
eofill
0.0 0.0 0.0 setrgbcolor
newpath
80 -246 moveto
336 -246 lineto
stroke
83 -262 moveto
(source-node : Graph-Node) show
83 -277 moveto
(target-node : Graph-Node) show
83 -292 moveto
(edge-label : String) show
newpath
80 -224 moveto
257 0 rlineto
0 -136 rlineto
-257 0 rlineto
closepath
stroke
newpath
360 -150 moveto
360 -192 lineto
208 -192 lineto
208 -224 lineto
stroke
newpath
360 -150 moveto
365 -160 lineto
360 -170 lineto
355 -160 lineto
closepath
eofill
newpath
360 -150 moveto
365 -160 lineto
360 -170 lineto
355 -160 lineto
closepath
stroke
newpath
201 -212 moveto
208 -224 lineto
stroke
newpath
215 -212 moveto
208 -224 lineto
stroke
372 -177 moveto
(1) show
213 -209 moveto
(0..*) show
1.0 1.0 1.0 setrgbcolor
newpath
336 -408 moveto
138 0 rlineto
0 -67 rlineto
-138 0 rlineto
closepath
eofill
newpath
336 -408 moveto
138 0 rlineto
0 1 rlineto
-138 0 rlineto
closepath
eofill
0.0 0.0 0.0 setrgbcolor
newpath
336 -408 moveto
139 0 rlineto
0 0 rlineto
-139 0 rlineto
closepath
stroke
1.0 1.0 1.0 setrgbcolor
newpath
336 -408 moveto
138 0 rlineto
0 -21 rlineto
-138 0 rlineto
closepath
eofill
0.0 0.0 0.0 setrgbcolor
340 -423 moveto
(Graph-Molecule-Node) show
1.0 1.0 1.0 setrgbcolor
newpath
336 -451 moveto
138 0 rlineto
0 -23 rlineto
-138 0 rlineto
closepath
eofill
0.0 0.0 0.0 setrgbcolor
newpath
336 -451 moveto
474 -451 lineto
stroke
1.0 1.0 1.0 setrgbcolor
newpath
336 -430 moveto
138 0 rlineto
0 -20 rlineto
-138 0 rlineto
closepath
eofill
0.0 0.0 0.0 setrgbcolor
newpath
336 -430 moveto
474 -430 lineto
stroke
newpath
336 -408 moveto
139 0 rlineto
0 -68 rlineto
-139 0 rlineto
closepath
stroke
newpath
392 -408 moveto
392 -384 lineto
488 -384 lineto
488 -358 lineto
stroke
1.0 1.0 1.0 setrgbcolor
newpath
488 -358 moveto
495 -370 lineto
481 -370 lineto
closepath
eofill
0.0 0.0 0.0 setrgbcolor
newpath
488 -358 moveto
495 -370 lineto
481 -370 lineto
closepath
stroke
1.0 1.0 1.0 setrgbcolor
newpath
512 -408 moveto
137 0 rlineto
0 -67 rlineto
-137 0 rlineto
closepath
eofill
newpath
512 -408 moveto
137 0 rlineto
0 1 rlineto
-137 0 rlineto
closepath
eofill
0.0 0.0 0.0 setrgbcolor
newpath
512 -408 moveto
138 0 rlineto
0 0 rlineto
-138 0 rlineto
closepath
stroke
1.0 1.0 1.0 setrgbcolor
newpath
512 -408 moveto
137 0 rlineto
0 -21 rlineto
-137 0 rlineto
closepath
eofill
0.0 0.0 0.0 setrgbcolor
516 -423 moveto
(Graph-Reaction-Node) show
1.0 1.0 1.0 setrgbcolor
newpath
512 -451 moveto
137 0 rlineto
0 -23 rlineto
-137 0 rlineto
closepath
eofill
0.0 0.0 0.0 setrgbcolor
newpath
512 -451 moveto
649 -451 lineto
stroke
1.0 1.0 1.0 setrgbcolor
newpath
512 -430 moveto
137 0 rlineto
0 -20 rlineto
-137 0 rlineto
closepath
eofill
0.0 0.0 0.0 setrgbcolor
newpath
512 -430 moveto
649 -430 lineto
stroke
newpath
512 -408 moveto
138 0 rlineto
0 -68 rlineto
-138 0 rlineto
closepath
stroke
newpath
584 -408 moveto
584 -384 lineto
488 -384 lineto
488 -358 lineto
stroke
1.0 1.0 1.0 setrgbcolor
newpath
488 -358 moveto
495 -370 lineto
481 -370 lineto
closepath
eofill
0.0 0.0 0.0 setrgbcolor
newpath
488 -358 moveto
495 -370 lineto
481 -370 lineto
closepath
stroke
showpage
%%Trailer
