#FIG 3.2  Produced by xfig version 3.2.5a
Landscape
Center
Metric
A4      
100.00
Single
-2
1200 2
6 630 1665 2970 2880
2 2 0 2 1 7 50 -1 -1 0.000 0 0 -1 0 0 5
	 675 1710 2925 1710 2925 2835 675 2835 675 1710
4 0 4 50 -1 0 16 0.0000 4 195 1035 1350 2385 CABINE\001
-6
6 10395 2700 11745 3870
2 2 0 2 1 7 50 -1 -1 0.000 0 0 -1 0 0 5
	 10440 2745 11700 2745 11700 3825 10440 3825 10440 2745
4 0 4 50 -1 0 16 0.0000 4 255 990 10575 3420 OpenGL\001
-6
6 10395 585 11745 1890
2 2 0 2 1 7 50 -1 -1 0.000 0 0 -1 0 0 5
	 10440 630 11700 630 11700 1845 10440 1845 10440 630
4 0 4 50 -1 0 16 0.0000 4 195 510 10800 1350 SDL\001
-6
6 4500 1710 6435 2880
2 2 0 2 1 7 50 -1 -1 0.000 0 0 -1 0 0 5
	 4545 1755 6390 1755 6390 2835 4545 2835 4545 1755
4 0 4 50 -1 0 16 0.0000 4 195 675 5175 2385 SBCL\001
-6
6 7965 1755 9000 2835
2 2 0 2 1 7 50 -1 -1 0.000 0 0 -1 0 0 5
	 8010 1800 8955 1800 8955 2790 8010 2790 8010 1800
4 0 4 50 -1 0 16 0.0000 4 195 600 8190 2385 cl-sdl\001
-6
2 1 0 2 0 7 50 -1 -1 0.000 0 0 -1 1 1 2
	3 1 1.00 60.00 120.00
	3 1 1.00 60.00 120.00
	 2925 2205 4500 2205
2 1 0 2 0 7 50 -1 -1 0.000 0 0 -1 1 1 2
	3 1 1.00 60.00 120.00
	3 1 1.00 60.00 120.00
	 6390 2250 7965 2250
2 1 0 2 0 7 50 -1 -1 0.000 0 0 -1 1 1 2
	3 1 1.00 60.00 120.00
	3 1 1.00 60.00 120.00
	 8955 2295 10440 1260
2 1 0 2 0 7 50 -1 -1 0.000 0 0 -1 1 1 2
	3 1 1.00 60.00 120.00
	3 1 1.00 60.00 120.00
	 9000 2340 10395 3285
