#FIG 3.2  Produced by xfig version 3.2.5a
Landscape
Center
Metric
A4      
100.00
Single
-2
1200 2
2 5 0 1 0 -1 50 -1 -1 0.000 0 0 -1 0 0 5
	0 Drawing2.jpg
	 765 855 8723 855 8723 1912 765 1912 765 855
