%!PS-Adobe-2.0 EPSF-2.0
%%Title: reaction1.pstex
%%Creator: fig2dev Version 3.2 Patchlevel 5c
%%CreationDate: Mon Sep 12 15:18:37 2011
%%BoundingBox: 0 0 172 125
%Magnification: 1.0000
%%EndComments
%%BeginProlog
/$F2psDict 200 dict def
$F2psDict begin
$F2psDict /mtrx matrix put
/col-1 {0 setgray} bind def
/col0 {0.000 0.000 0.000 srgb} bind def
/col1 {0.000 0.000 1.000 srgb} bind def
/col2 {0.000 1.000 0.000 srgb} bind def
/col3 {0.000 1.000 1.000 srgb} bind def
/col4 {1.000 0.000 0.000 srgb} bind def
/col5 {1.000 0.000 1.000 srgb} bind def
/col6 {1.000 1.000 0.000 srgb} bind def
/col7 {1.000 1.000 1.000 srgb} bind def
/col8 {0.000 0.000 0.560 srgb} bind def
/col9 {0.000 0.000 0.690 srgb} bind def
/col10 {0.000 0.000 0.820 srgb} bind def
/col11 {0.530 0.810 1.000 srgb} bind def
/col12 {0.000 0.560 0.000 srgb} bind def
/col13 {0.000 0.690 0.000 srgb} bind def
/col14 {0.000 0.820 0.000 srgb} bind def
/col15 {0.000 0.560 0.560 srgb} bind def
/col16 {0.000 0.690 0.690 srgb} bind def
/col17 {0.000 0.820 0.820 srgb} bind def
/col18 {0.560 0.000 0.000 srgb} bind def
/col19 {0.690 0.000 0.000 srgb} bind def
/col20 {0.820 0.000 0.000 srgb} bind def
/col21 {0.560 0.000 0.560 srgb} bind def
/col22 {0.690 0.000 0.690 srgb} bind def
/col23 {0.820 0.000 0.820 srgb} bind def
/col24 {0.500 0.190 0.000 srgb} bind def
/col25 {0.630 0.250 0.000 srgb} bind def
/col26 {0.750 0.380 0.000 srgb} bind def
/col27 {1.000 0.500 0.500 srgb} bind def
/col28 {1.000 0.630 0.630 srgb} bind def
/col29 {1.000 0.750 0.750 srgb} bind def
/col30 {1.000 0.880 0.880 srgb} bind def
/col31 {1.000 0.840 0.000 srgb} bind def

end

/cp {closepath} bind def
/ef {eofill} bind def
/gr {grestore} bind def
/gs {gsave} bind def
/sa {save} bind def
/rs {restore} bind def
/l {lineto} bind def
/m {moveto} bind def
/rm {rmoveto} bind def
/n {newpath} bind def
/s {stroke} bind def
/sh {show} bind def
/slc {setlinecap} bind def
/slj {setlinejoin} bind def
/slw {setlinewidth} bind def
/srgb {setrgbcolor} bind def
/rot {rotate} bind def
/sc {scale} bind def
/sd {setdash} bind def
/ff {findfont} bind def
/sf {setfont} bind def
/scf {scalefont} bind def
/sw {stringwidth} bind def
/tr {translate} bind def
/tnt {dup dup currentrgbcolor
  4 -2 roll dup 1 exch sub 3 -1 roll mul add
  4 -2 roll dup 1 exch sub 3 -1 roll mul add
  4 -2 roll dup 1 exch sub 3 -1 roll mul add srgb}
  bind def
/shd {dup dup currentrgbcolor 4 -2 roll mul 4 -2 roll mul
  4 -2 roll mul srgb} bind def
 /DrawEllipse {
	/endangle exch def
	/startangle exch def
	/yrad exch def
	/xrad exch def
	/y exch def
	/x exch def
	/savematrix mtrx currentmatrix def
	x y tr xrad yrad sc 0 0 1 startangle endangle arc
	closepath
	savematrix setmatrix
	} def

/$F2psBegin {$F2psDict begin /$F2psEnteredState save def} def
/$F2psEnd {$F2psEnteredState restore end} def

/pageheader {
save
newpath 0 125 moveto 0 0 lineto 172 0 lineto 172 125 lineto closepath clip newpath
-27.1 147.9 translate
1 -1 scale
$F2psBegin
10 setmiterlimit
0 slj 0 slc
 0.06299 0.06299 sc
} bind def
/pagefooter {
$F2psEnd
restore
} bind def
%%EndProlog
pageheader
%
% Fig objects follow
%
% 
% here starts figure with depth 50
% Ellipse
7.500 slw
n 675 2115 225 225 0 360 DrawEllipse gs col1 s gr

% Ellipse
n 664 609 225 225 0 360 DrawEllipse gs col1 s gr

% Ellipse
n 2925 675 225 225 0 360 DrawEllipse gs col1 s gr

% Ellipse
n 2880 2115 225 225 0 360 DrawEllipse gs col1 s gr

% Polyline
0 slj
0 slc
gs  clippath
2553 2190 m 2670 2190 l 2670 2130 l 2553 2130 l 2553 2130 l 2643 2160 l 2553 2190 l cp
eoclip
n 900 2160 m
 2655 2160 l gs col1 s gr gr

% arrowhead
n 2553 2190 m 2643 2160 l 2553 2130 l 2523 2160 l 2553 2190 l 
 cp gs col1 1.00 shd ef gr  col1 s
% Polyline
gs  clippath
2598 660 m 2715 660 l 2715 600 l 2598 600 l 2598 600 l 2688 630 l 2598 660 l cp
eoclip
n 900 630 m
 2700 630 l gs col1 s gr gr

% arrowhead
n 2598 660 m 2688 630 l 2598 600 l 2568 630 l 2598 660 l 
 cp gs col1 1.00 shd ef gr  col1 s
% Polyline
gs  clippath
2557 2028 m 2647 2102 l 2685 2056 l 2595 1981 l 2595 1981 l 2646 2062 l 2557 2028 l cp
eoclip
n 900 630 m
 2655 2070 l gs col1 s gr gr

% arrowhead
n 2557 2028 m 2646 2062 l 2595 1981 l 2553 1985 l 2557 2028 l 
 cp gs col1 1.00 shd ef gr  col1 s
% Polyline
gs  clippath
2639 761 m 2730 689 l 2692 642 l 2601 714 l 2601 714 l 2691 682 l 2639 761 l cp
eoclip
n 900 2115 m
 2700 675 l gs col1 s gr gr

% arrowhead
n 2639 761 m 2691 682 l 2601 714 l 2597 756 l 2639 761 l 
 cp gs col1 1.00 shd ef gr  col1 s
/Times-Roman ff 120.00 scf sf
495 2160 m
gs 1 -1 sc (AccoA) col0 sh gr
/Times-Roman ff 120.00 scf sf
495 675 m
gs 1 -1 sc (OAA) col0 sh gr
/Times-Roman ff 120.00 scf sf
2790 720 m
gs 1 -1 sc (cit) col0 sh gr
/Times-Roman ff 120.00 scf sf
2745 2160 m
gs 1 -1 sc (coA) col0 sh gr
% here ends figure;
pagefooter
showpage
%%Trailer
%EOF
