%!PS-Adobe-2.0 EPSF-2.0
%%Title: reaction.pstex
%%Creator: fig2dev Version 3.2 Patchlevel 5a
%%CreationDate: Tue Dec  1 17:37:01 2009
%%BoundingBox: 0 0 152 123
%Magnification: 1.0000
%%EndComments
%%BeginProlog
/$F2psDict 200 dict def
$F2psDict begin
$F2psDict /mtrx matrix put
/col-1 {0 setgray} bind def
/col0 {0.000 0.000 0.000 srgb} bind def
/col1 {0.000 0.000 1.000 srgb} bind def
/col2 {0.000 1.000 0.000 srgb} bind def
/col3 {0.000 1.000 1.000 srgb} bind def
/col4 {1.000 0.000 0.000 srgb} bind def
/col5 {1.000 0.000 1.000 srgb} bind def
/col6 {1.000 1.000 0.000 srgb} bind def
/col7 {1.000 1.000 1.000 srgb} bind def
/col8 {0.000 0.000 0.560 srgb} bind def
/col9 {0.000 0.000 0.690 srgb} bind def
/col10 {0.000 0.000 0.820 srgb} bind def
/col11 {0.530 0.810 1.000 srgb} bind def
/col12 {0.000 0.560 0.000 srgb} bind def
/col13 {0.000 0.690 0.000 srgb} bind def
/col14 {0.000 0.820 0.000 srgb} bind def
/col15 {0.000 0.560 0.560 srgb} bind def
/col16 {0.000 0.690 0.690 srgb} bind def
/col17 {0.000 0.820 0.820 srgb} bind def
/col18 {0.560 0.000 0.000 srgb} bind def
/col19 {0.690 0.000 0.000 srgb} bind def
/col20 {0.820 0.000 0.000 srgb} bind def
/col21 {0.560 0.000 0.560 srgb} bind def
/col22 {0.690 0.000 0.690 srgb} bind def
/col23 {0.820 0.000 0.820 srgb} bind def
/col24 {0.500 0.190 0.000 srgb} bind def
/col25 {0.630 0.250 0.000 srgb} bind def
/col26 {0.750 0.380 0.000 srgb} bind def
/col27 {1.000 0.500 0.500 srgb} bind def
/col28 {1.000 0.630 0.630 srgb} bind def
/col29 {1.000 0.750 0.750 srgb} bind def
/col30 {1.000 0.880 0.880 srgb} bind def
/col31 {1.000 0.840 0.000 srgb} bind def

end

/cp {closepath} bind def
/ef {eofill} bind def
/gr {grestore} bind def
/gs {gsave} bind def
/sa {save} bind def
/rs {restore} bind def
/l {lineto} bind def
/m {moveto} bind def
/rm {rmoveto} bind def
/n {newpath} bind def
/s {stroke} bind def
/sh {show} bind def
/slc {setlinecap} bind def
/slj {setlinejoin} bind def
/slw {setlinewidth} bind def
/srgb {setrgbcolor} bind def
/rot {rotate} bind def
/sc {scale} bind def
/sd {setdash} bind def
/ff {findfont} bind def
/sf {setfont} bind def
/scf {scalefont} bind def
/sw {stringwidth} bind def
/tr {translate} bind def
/tnt {dup dup currentrgbcolor
  4 -2 roll dup 1 exch sub 3 -1 roll mul add
  4 -2 roll dup 1 exch sub 3 -1 roll mul add
  4 -2 roll dup 1 exch sub 3 -1 roll mul add srgb}
  bind def
/shd {dup dup currentrgbcolor 4 -2 roll mul 4 -2 roll mul
  4 -2 roll mul srgb} bind def
 /DrawEllipse {
	/endangle exch def
	/startangle exch def
	/yrad exch def
	/xrad exch def
	/y exch def
	/x exch def
	/savematrix mtrx currentmatrix def
	x y tr xrad yrad sc 0 0 1 startangle endangle arc
	closepath
	savematrix setmatrix
	} def

/$F2psBegin {$F2psDict begin /$F2psEnteredState save def} def
/$F2psEnd {$F2psEnteredState restore end} def

/pageheader {
save
newpath 0 123 moveto 0 0 lineto 152 0 lineto 152 123 lineto closepath clip newpath
-22.2 147.9 translate
1 -1 scale
$F2psBegin
10 setmiterlimit
0 slj 0 slc
 0.06299 0.06299 sc
} bind def
/pagefooter {
$F2psEnd
restore
} bind def
%%EndProlog
pageheader
%
% Fig objects follow
%
% 
% here starts figure with depth 50
% Ellipse
7.500 slw
n 2475 2115 225 225 0 360 DrawEllipse gs col1 s gr

% Ellipse
n 630 630 225 225 0 360 DrawEllipse gs col1 s gr

% Ellipse
n 585 2070 225 225 0 360 DrawEllipse gs col1 s gr

% Ellipse
n 2520 675 225 225 0 360 DrawEllipse gs col1 s gr

% Polyline
0 slj
0 slc
gs  clippath
1163 1215 m 1251 1292 l 1290 1247 l 1202 1170 l 1202 1170 l 1251 1252 l 1163 1215 l cp
eoclip
n 765 833 m
 1260 1260 l gs col1 s gr gr

% arrowhead
n 1163 1215 m 1251 1252 l 1202 1170 l 1160 1173 l 1163 1215 l 
 cp gs col1 1.00 shd ef gr  col1 s
% Polyline
gs  clippath
1199 1571 m 1290 1498 l 1252 1452 l 1162 1525 l 1162 1525 l 1251 1492 l 1199 1571 l cp
eoclip
n 745 1902 m
 1260 1485 l gs col1 s gr gr

% arrowhead
n 1199 1571 m 1251 1492 l 1162 1525 l 1157 1567 l 1199 1571 l 
 cp gs col1 1.00 shd ef gr  col1 s
% Polyline
gs  clippath
2284 945 m 2371 867 l 2331 822 l 2244 900 l 2244 900 l 2331 863 l 2284 945 l cp
eoclip
n 1890 1260 m
 2340 855 l gs col1 s gr gr

% arrowhead
n 2284 945 m 2331 863 l 2244 900 l 2241 943 l 2284 945 l 
 cp gs col1 1.00 shd ef gr  col1 s
% Polyline
gs  clippath
2247 1884 m 2329 1966 l 2371 1924 l 2289 1842 l 2289 1842 l 2332 1927 l 2247 1884 l cp
eoclip
n 1890 1485 m
 2340 1935 l gs col1 s gr gr

% arrowhead
n 2247 1884 m 2332 1927 l 2289 1842 l 2247 1842 l 2247 1884 l 
 cp gs col1 1.00 shd ef gr  col1 s
% Polyline
n 1260 1260 m 1890 1260 l 1890 1485 l 1260 1485 l
 cp gs col1 s gr 
/Times-Roman ff 120.00 scf sf
450 675 m
gs 1 -1 sc (OAA) col4 sh gr
/Times-Roman ff 180.00 scf sf
1350 1440 m
gs 1 -1 sc (TCA1) col4 sh gr
/Times-Roman ff 120.00 scf sf
2430 720 m
gs 1 -1 sc (cit) col4 sh gr
/Times-Roman ff 120.00 scf sf
2385 2160 m
gs 1 -1 sc (coA) col4 sh gr
/Times-Roman ff 120.00 scf sf
405 2115 m
gs 1 -1 sc (AccoA) col4 sh gr
% here ends figure;
pagefooter
showpage
%%Trailer
%EOF
