%!PS-Adobe-2.0 EPSF-2.0
%%Title: undirected-graph.pstex
%%Creator: fig2dev Version 3.2 Patchlevel 5a
%%CreationDate: Sat Nov 14 02:05:18 2009
%%BoundingBox: 0 0 291 279
%Magnification: 1.0000
%%EndComments
%%BeginProlog
/$F2psDict 200 dict def
$F2psDict begin
$F2psDict /mtrx matrix put
/col-1 {0 setgray} bind def
/col0 {0.000 0.000 0.000 srgb} bind def
/col1 {0.000 0.000 1.000 srgb} bind def
/col2 {0.000 1.000 0.000 srgb} bind def
/col3 {0.000 1.000 1.000 srgb} bind def
/col4 {1.000 0.000 0.000 srgb} bind def
/col5 {1.000 0.000 1.000 srgb} bind def
/col6 {1.000 1.000 0.000 srgb} bind def
/col7 {1.000 1.000 1.000 srgb} bind def
/col8 {0.000 0.000 0.560 srgb} bind def
/col9 {0.000 0.000 0.690 srgb} bind def
/col10 {0.000 0.000 0.820 srgb} bind def
/col11 {0.530 0.810 1.000 srgb} bind def
/col12 {0.000 0.560 0.000 srgb} bind def
/col13 {0.000 0.690 0.000 srgb} bind def
/col14 {0.000 0.820 0.000 srgb} bind def
/col15 {0.000 0.560 0.560 srgb} bind def
/col16 {0.000 0.690 0.690 srgb} bind def
/col17 {0.000 0.820 0.820 srgb} bind def
/col18 {0.560 0.000 0.000 srgb} bind def
/col19 {0.690 0.000 0.000 srgb} bind def
/col20 {0.820 0.000 0.000 srgb} bind def
/col21 {0.560 0.000 0.560 srgb} bind def
/col22 {0.690 0.000 0.690 srgb} bind def
/col23 {0.820 0.000 0.820 srgb} bind def
/col24 {0.500 0.190 0.000 srgb} bind def
/col25 {0.630 0.250 0.000 srgb} bind def
/col26 {0.750 0.380 0.000 srgb} bind def
/col27 {1.000 0.500 0.500 srgb} bind def
/col28 {1.000 0.630 0.630 srgb} bind def
/col29 {1.000 0.750 0.750 srgb} bind def
/col30 {1.000 0.880 0.880 srgb} bind def
/col31 {1.000 0.840 0.000 srgb} bind def

end

/cp {closepath} bind def
/ef {eofill} bind def
/gr {grestore} bind def
/gs {gsave} bind def
/sa {save} bind def
/rs {restore} bind def
/l {lineto} bind def
/m {moveto} bind def
/rm {rmoveto} bind def
/n {newpath} bind def
/s {stroke} bind def
/sh {show} bind def
/slc {setlinecap} bind def
/slj {setlinejoin} bind def
/slw {setlinewidth} bind def
/srgb {setrgbcolor} bind def
/rot {rotate} bind def
/sc {scale} bind def
/sd {setdash} bind def
/ff {findfont} bind def
/sf {setfont} bind def
/scf {scalefont} bind def
/sw {stringwidth} bind def
/tr {translate} bind def
/tnt {dup dup currentrgbcolor
  4 -2 roll dup 1 exch sub 3 -1 roll mul add
  4 -2 roll dup 1 exch sub 3 -1 roll mul add
  4 -2 roll dup 1 exch sub 3 -1 roll mul add srgb}
  bind def
/shd {dup dup currentrgbcolor 4 -2 roll mul 4 -2 roll mul
  4 -2 roll mul srgb} bind def
 /DrawEllipse {
	/endangle exch def
	/startangle exch def
	/yrad exch def
	/xrad exch def
	/y exch def
	/x exch def
	/savematrix mtrx currentmatrix def
	x y tr xrad yrad sc 0 0 1 startangle endangle arc
	closepath
	savematrix setmatrix
	} def

/$F2psBegin {$F2psDict begin /$F2psEnteredState save def} def
/$F2psEnd {$F2psEnteredState restore end} def

/pageheader {
save
newpath 0 279 moveto 0 0 lineto 291 0 lineto 291 279 lineto closepath clip newpath
-24.8 296.9 translate
1 -1 scale
$F2psBegin
10 setmiterlimit
0 slj 0 slc
 0.06299 0.06299 sc
} bind def
/pagefooter {
$F2psEnd
restore
} bind def
%%EndProlog
pageheader
%
% Fig objects follow
%
% 
% here starts figure with depth 50
% Ellipse
7.500 slw
n 765 675 363 363 0 360 DrawEllipse gs col0 s gr

% Ellipse
n 945 4343 363 363 0 360 DrawEllipse gs col0 s gr

% Ellipse
n 866 2289 363 363 0 360 DrawEllipse gs col0 s gr

% Ellipse
n 4588 660 363 363 0 360 DrawEllipse gs col0 s gr

% Ellipse
n 4635 2160 363 363 0 360 DrawEllipse gs col0 s gr

% Ellipse
n 2752 2230 363 363 0 360 DrawEllipse gs col0 s gr

% Ellipse
n 4575 4322 363 363 0 360 DrawEllipse gs col0 s gr

% Polyline
0 slj
0 slc
n 765 1035 m
 855 1935 l gs col1 s gr 
% Polyline
n 945 2655 m
 945 3960 l gs col1 s gr 
% Polyline
n 1260 2250 m
 2385 2250 l gs col1 s gr 
% Polyline
n 4680 2520 m
 4635 3960 l gs col1 s gr 
% Polyline
n 4635 990 m
 4635 1800 l gs col1 s gr 
% Polyline
n 3150 2205 m
 4275 2205 l gs col1 s gr 
% Polyline
n 2565 2520 m
 1215 4095 l gs col1 s gr 
% Polyline
n 3015 1935 m
 4320 855 l gs col1 s gr 
% Polyline
n 3015 2475 m
 4275 4095 l gs col1 s gr 
% Polyline
n 2565 1890 m
 1035 900 l gs col1 s gr 
/Times-Roman ff 300.00 scf sf
675 765 m
gs 1 -1 sc (1) col1 sh gr
/Times-Roman ff 300.00 scf sf
900 4455 m
gs 1 -1 sc (3) col1 sh gr
/Times-Roman ff 300.00 scf sf
810 2385 m
gs 1 -1 sc (2) col1 sh gr
/Times-Roman ff 300.00 scf sf
4500 765 m
gs 1 -1 sc (6) col1 sh gr
/Times-Roman ff 300.00 scf sf
4590 2250 m
gs 1 -1 sc (5) col1 sh gr
/Times-Roman ff 300.00 scf sf
2700 2340 m
gs 1 -1 sc (4) col1 sh gr
/Times-Roman ff 300.00 scf sf
4500 4455 m
gs 1 -1 sc (7) col1 sh gr
% here ends figure;
pagefooter
showpage
%%Trailer
%EOF
